# v_fi, V_psi, v_teta
0.1570796, 0.0, 0.0
0.1570796, 0.0, 0.0
0.1570796, 0.0, 0.0
0.1570796, 0.0, 0.0
0.1570796, 0.0, 0.0
0.1570796, 0.0, 0.0
0.1570796, 0.0, 0.0
0.1570796, 0.0, 0.0
0.1570796, 0.0, 0.0
0.1570796, 0.0, 0.0
0.0, 0.0, 0.1570796
0.0, 0.0, 0.1570796
0.0, 0.0, 0.1570796
0.0, 0.0, 0.1570796
0.0, 0.0, 0.1570796
0.0, 0.0, 0.1570796
0.0, 0.0, 0.1570796
0.0, 0.0, 0.1570796
0.0, 0.0, 0.1570796
0.0, 0.0, 0.1570796
0.0, 0.1570796, 0.0
0.0, 0.1570796, 0.0
0.0, 0.1570796, 0.0
0.0, 0.1570796, 0.0
0.0, 0.1570796, 0.0
0.0, 0.1570796, 0.0
0.0, 0.1570796, 0.0
0.0, 0.1570796, 0.0
0.0, 0.1570796, 0.0
0.0, 0.1570796, 0.0