# MagX, MagY, MagZ
0.0000, 0.0000, 0.0000
0.0000, 0.0008, 0.0000
0.0000, 0.0011, 0.0000
0.0000, 0.0026, 0.0000
-0.0000, -0.0014, 0.0000
0.0002, 0.0054, 0.0000
-0.0003, -0.0073, 0.0000
-0.0000, -0.0011, 0.0000
0.0003, 0.0068, 0.0000
-0.0001, -0.0019, 0.0000
-0.0001, -0.0015, 0.0000
-0.0005, -0.0065, 0.0000
0.0009, 0.0118, 0.0000
-0.0006, -0.0075, 0.0000
0.0004, 0.0047, 0.0000
-0.0017, -0.0184, 0.0000
0.0019, 0.0193, 0.0000
0.0006, 0.0052, 0.0000
0.0007, 0.0063, 0.0000
-0.0013, -0.0112, 0.0000
-0.0010, -0.0081, 0.0000
0.0011, 0.0084, 0.0000
-0.0019, -0.0137, 0.0000
0.0004, 0.0025, 0.0000
0.0021, 0.0140, 0.0000
0.0028, 0.0181, 0.0000
0.0027, 0.0163, 0.0000
-0.0055, -0.0321, 0.0000
0.0056, 0.0317, 0.0000
0.0003, 0.0017, 0.0000
0.0058, 0.0308, 0.0000
0.0004, 0.0020, 0.0000
-0.0078, -0.0388, 0.0000
-0.0043, -0.0207, 0.0000
-0.0053, -0.0246, 0.0000
-0.0041, -0.0187, 0.0000
0.0045, 0.0199, 0.0000
0.0063, 0.0270, 0.0000
-0.0063, -0.0262, 0.0000
-0.0108, -0.0437, 0.0000
0.0037, 0.0146, 0.0000
-0.0017, -0.0067, 0.0000
-0.0080, -0.0298, 0.0000
-0.0082, -0.0301, 0.0000
0.0127, 0.0452, 0.0000
0.0038, 0.0133, 0.0000
0.0032, 0.0110, 0.0000
0.0062, 0.0206, 0.0000
0.0009, 0.0031, 0.0000
-0.0121, -0.0386, 0.0000
0.0170, 0.0533, 0.0000
-0.0093, -0.0286, 0.0000
-0.0097, -0.0291, 0.0000
0.0042, 0.0124, 0.0000
-0.0030, -0.0087, 0.0000
-0.0096, -0.0273, 0.0000
-0.0053, -0.0147, 0.0000
-0.0010, -0.0029, 0.0000
0.0082, 0.0220, 0.0000
-0.0265, -0.0700, 0.0000
0.0051, 0.0131, 0.0000
-0.0237, -0.0603, 0.0000
0.0214, 0.0537, 0.0000
-0.0308, -0.0757, 0.0000
0.0077, 0.0187, 0.0000
-0.0318, -0.0758, 0.0000
-0.0255, -0.0598, 0.0000
-0.0069, -0.0158, 0.0000
-0.0045, -0.0102, 0.0000
0.0312, 0.0697, 0.0000
0.0137, 0.0301, 0.0000
0.0309, 0.0671, 0.0000
-0.0027, -0.0059, 0.0000
0.0145, 0.0306, 0.0000
0.0155, 0.0321, 0.0000
0.0041, 0.0083, 0.0000
0.0310, 0.0624, 0.0000
-0.0172, -0.0341, 0.0000
-0.0465, -0.0912, 0.0000
-0.0318, -0.0616, 0.0000
0.0398, 0.0759, 0.0000
-0.0157, -0.0295, 0.0000
0.0353, 0.0656, 0.0000
0.0122, 0.0224, 0.0000
0.0497, 0.0899, 0.0000
-0.0441, -0.0786, 0.0000
-0.0009, -0.0015, 0.0000
-0.0497, -0.0864, 0.0000
0.0049, 0.0085, 0.0000
-0.0031, -0.0052, 0.0000
0.0051, 0.0085, 0.0000
-0.0519, -0.0859, 0.0000
0.0568, 0.0928, 0.0000
-0.0152, -0.0245, 0.0000
0.0071, 0.0114, 0.0000
0.0293, 0.0463, 0.0000
-0.0393, -0.0612, 0.0000
-0.0657, -0.1013, 0.0000
0.0438, 0.0668, 0.0000
0.0317, 0.0477, 0.0000
0.0199, 0.0296, 0.0000
-0.0209, -0.0307, 0.0000
-0.0604, -0.0879, 0.0000
-0.0561, -0.0807, 0.0000
0.0270, 0.0384, 0.0000
-0.0796, -0.1121, 0.0000
0.0100, 0.0139, 0.0000
0.0841, 0.1159, 0.0000
-0.0827, -0.1128, 0.0000
0.0569, 0.0767, 0.0000
-0.0226, -0.0302, 0.0000
-0.0148, -0.0195, 0.0000
0.0360, 0.0471, 0.0000
-0.0246, -0.0318, 0.0000
0.0414, 0.0530, 0.0000
0.0169, 0.0214, 0.0000
0.0013, 0.0016, 0.0000
-0.1016, -0.1261, 0.0000
0.0141, 0.0174, 0.0000
0.0795, 0.0967, 0.0000
-0.0758, -0.0913, 0.0000
-0.0800, -0.0954, 0.0000
-0.0720, -0.0850, 0.0000
0.1179, 0.1378, 0.0000
0.0865, 0.1002, 0.0000
-0.0282, -0.0323, 0.0000
0.0403, 0.0458, 0.0000
-0.1028, -0.1156, 0.0000
0.0255, 0.0284, 0.0000
-0.0832, -0.0917, 0.0000
-0.0223, -0.0244, 0.0000
0.0993, 0.1075, 0.0000
0.0173, 0.0185, 0.0000
0.1272, 0.1351, 0.0000
0.1242, 0.1307, 0.0000
0.0753, 0.0785, 0.0000
-0.1142, -0.1179, 0.0000
-0.0683, -0.0699, 0.0000
0.0659, 0.0668, 0.0000
-0.0136, -0.0136, 0.0000
-0.0538, -0.0536, 0.0000
0.0355, 0.0350, 0.0000
-0.1362, -0.1332, 0.0000
0.0084, 0.0082, 0.0000
-0.0437, -0.0419, 0.0000
0.0373, 0.0355, 0.0000
-0.0320, -0.0302, 0.0000
-0.0758, -0.0709, 0.0000
-0.1609, -0.1492, 0.0000
0.0219, 0.0201, 0.0000
-0.1340, -0.1221, 0.0000
-0.1692, -0.1527, 0.0000
-0.1320, -0.1181, 0.0000
0.0130, 0.0115, 0.0000
-0.1042, -0.0916, 0.0000
-0.1589, -0.1386, 0.0000
-0.0553, -0.0478, 0.0000
0.1261, 0.1081, 0.0000
-0.0080, -0.0068, 0.0000
-0.0665, -0.0560, 0.0000
0.1889, 0.1578, 0.0000
0.0327, 0.0271, 0.0000
-0.2041, -0.1677, 0.0000
0.0114, 0.0093, 0.0000
-0.0201, -0.0162, 0.0000
-0.0286, -0.0229, 0.0000
-0.1095, -0.0870, 0.0000
0.1071, 0.0844, 0.0000
-0.0795, -0.0621, 0.0000
0.1184, 0.0917, 0.0000
-0.0754, -0.0579, 0.0000
0.1302, 0.0992, 0.0000
0.1040, 0.0786, 0.0000
-0.0409, -0.0306, 0.0000
-0.0757, -0.0562, 0.0000
0.2363, 0.1741, 0.0000
0.0926, 0.0677, 0.0000
-0.1953, -0.1416, 0.0000
0.0510, 0.0366, 0.0000
0.1857, 0.1324, 0.0000
-0.0991, -0.0701, 0.0000
0.1792, 0.1257, 0.0000
-0.1960, -0.1364, 0.0000
-0.1902, -0.1313, 0.0000
-0.0502, -0.0344, 0.0000
-0.1772, -0.1203, 0.0000
-0.2017, -0.1359, 0.0000
-0.0153, -0.0103, 0.0000
0.0924, 0.0613, 0.0000
-0.0539, -0.0355, 0.0000
-0.0792, -0.0517, 0.0000
0.0348, 0.0225, 0.0000
0.1556, 0.0999, 0.0000
0.0540, 0.0344, 0.0000
-0.2829, -0.1787, 0.0000
0.1917, 0.1201, 0.0000
-0.2938, -0.1827, 0.0000
0.2328, 0.1436, 0.0000
0.0043, 0.0027, 0.0000
-0.0299, -0.0182, 0.0000
0.2972, 0.1790, 0.0000
-0.0245, -0.0146, 0.0000
0.0932, 0.0553, 0.0000
0.2184, 0.1284, 0.0000
-0.0446, -0.0260, 0.0000
-0.2814, -0.1629, 0.0000
-0.2815, -0.1616, 0.0000
0.0147, 0.0084, 0.0000
-0.2600, -0.1470, 0.0000
-0.0705, -0.0396, 0.0000
0.2678, 0.1490, 0.0000
0.3303, 0.1823, 0.0000
0.2815, 0.1541, 0.0000
0.3185, 0.1730, 0.0000
-0.0860, -0.0464, 0.0000
-0.0060, -0.0032, 0.0000
-0.1017, -0.0540, 0.0000
0.2761, 0.1454, 0.0000
-0.2200, -0.1149, 0.0000
0.2067, 0.1071, 0.0000
-0.3707, -0.1906, 0.0000
0.1509, 0.0770, 0.0000
-0.2531, -0.1281, 0.0000
-0.0804, -0.0404, 0.0000
-0.3530, -0.1758, 0.0000
0.0768, 0.0380, 0.0000
-0.3603, -0.1767, 0.0000
-0.2500, -0.1216, 0.0000
-0.2324, -0.1122, 0.0000
0.3180, 0.1523, 0.0000
-0.2225, -0.1057, 0.0000
-0.3770, -0.1777, 0.0000
0.1107, 0.0518, 0.0000
-0.4222, -0.1959, 0.0000
-0.1797, -0.0827, 0.0000
-0.3652, -0.1667, 0.0000
-0.1298, -0.0588, 0.0000
-0.0679, -0.0305, 0.0000
-0.0165, -0.0074, 0.0000
0.3166, 0.1401, 0.0000
-0.2589, -0.1136, 0.0000
0.0404, 0.0176, 0.0000
0.1387, 0.0599, 0.0000
-0.2802, -0.1201, 0.0000
0.1312, 0.0558, 0.0000
0.2207, 0.0931, 0.0000
-0.0299, -0.0125, 0.0000
0.0716, 0.0297, 0.0000
-0.4560, -0.1878, 0.0000
0.0105, 0.0043, 0.0000
-0.0015, -0.0006, 0.0000
0.4868, 0.1957, 0.0000
-0.2998, -0.1196, 0.0000
-0.2994, -0.1185, 0.0000
0.0109, 0.0043, 0.0000
0.3317, 0.1292, 0.0000
0.4680, 0.1808, 0.0000
0.2920, 0.1119, 0.0000
0.2125, 0.0808, 0.0000
0.2809, 0.1059, 0.0000
0.0107, 0.0040, 0.0000
-0.4379, -0.1624, 0.0000
0.2948, 0.1085, 0.0000
-0.0490, -0.0179, 0.0000
-0.1276, -0.0462, 0.0000
0.1693, 0.0608, 0.0000
0.4496, 0.1601, 0.0000
-0.4193, -0.1481, 0.0000
0.1205, 0.0422, 0.0000
0.4810, 0.1672, 0.0000
0.3648, 0.1257, 0.0000
-0.2101, -0.0718, 0.0000
-0.2860, -0.0970, 0.0000
-0.1267, -0.0426, 0.0000
-0.2425, -0.0809, 0.0000
0.5109, 0.1690, 0.0000
-0.4434, -0.1455, 0.0000
-0.0414, -0.0135, 0.0000
-0.2058, -0.0664, 0.0000
0.3828, 0.1225, 0.0000
0.4566, 0.1449, 0.0000
-0.0050, -0.0016, 0.0000
-0.5865, -0.1830, 0.0000
-0.0865, -0.0268, 0.0000
-0.2151, -0.0660, 0.0000
0.2026, 0.0616, 0.0000
-0.1797, -0.0542, 0.0000
-0.4761, -0.1425, 0.0000
-0.1757, -0.0521, 0.0000
0.5442, 0.1601, 0.0000
0.3978, 0.1161, 0.0000
-0.5453, -0.1577, 0.0000
0.3900, 0.1119, 0.0000
0.5299, 0.1507, 0.0000
0.1317, 0.0371, 0.0000
-0.5131, -0.1434, 0.0000
0.2191, 0.0607, 0.0000
0.4758, 0.1307, 0.0000
0.6299, 0.1716, 0.0000
-0.5483, -0.1481, 0.0000
0.2734, 0.0732, 0.0000
0.5538, 0.1470, 0.0000
0.3145, 0.0827, 0.0000
0.1971, 0.0514, 0.0000
-0.6844, -0.1769, 0.0000
-0.1194, -0.0306, 0.0000
0.7131, 0.1811, 0.0000
0.6120, 0.1541, 0.0000
-0.6928, -0.1728, 0.0000
0.1648, 0.0407, 0.0000
-0.4714, -0.1155, 0.0000
-0.0023, -0.0006, 0.0000
-0.0328, -0.0079, 0.0000
-0.5661, -0.1351, 0.0000
-0.5685, -0.1344, 0.0000
-0.3939, -0.0923, 0.0000
-0.3994, -0.0927, 0.0000
0.2589, 0.0596, 0.0000
-0.5662, -0.1291, 0.0000
0.7529, 0.1701, 0.0000
-0.1938, -0.0434, 0.0000
0.5884, 0.1305, 0.0000
-0.3732, -0.0820, 0.0000
-0.2011, -0.0438, 0.0000
0.1003, 0.0216, 0.0000
-0.0148, -0.0032, 0.0000
-0.5706, -0.1208, 0.0000
-0.4287, -0.0899, 0.0000
-0.7805, -0.1621, 0.0000
0.3125, 0.0643, 0.0000
0.4185, 0.0853, 0.0000
0.3186, 0.0643, 0.0000
-0.0869, -0.0174, 0.0000
0.0446, 0.0088, 0.0000
0.8088, 0.1586, 0.0000
0.4749, 0.0923, 0.0000
-0.7139, -0.1374, 0.0000
-0.0475, -0.0091, 0.0000
-0.1705, -0.0322, 0.0000
0.3095, 0.0578, 0.0000
0.3426, 0.0634, 0.0000
-0.1074, -0.0197, 0.0000
-0.5846, -0.1060, 0.0000
-0.0889, -0.0160, 0.0000
0.4833, 0.0859, 0.0000
-0.1746, -0.0307, 0.0000
-0.1689, -0.0294, 0.0000
-0.1604, -0.0277, 0.0000
-0.1973, -0.0337, 0.0000
-0.4283, -0.0724, 0.0000
0.0532, 0.0089, 0.0000
-0.7907, -0.1309, 0.0000
0.1766, 0.0289, 0.0000
0.2209, 0.0358, 0.0000
-0.5160, -0.0828, 0.0000
0.6496, 0.1032, 0.0000
0.3803, 0.0598, 0.0000
0.6314, 0.0982, 0.0000
-0.0398, -0.0061, 0.0000
0.6469, 0.0985, 0.0000
0.7525, 0.1133, 0.0000
-0.4698, -0.0700, 0.0000
0.6816, 0.1005, 0.0000
-0.6338, -0.0924, 0.0000
0.9334, 0.1346, 0.0000
-0.2988, -0.0426, 0.0000
-1.0079, -0.1422, 0.0000
0.0022, 0.0003, 0.0000
0.1571, 0.0217, 0.0000
0.2237, 0.0305, 0.0000
0.3397, 0.0458, 0.0000
-0.7285, -0.0972, 0.0000
1.0069, 0.1328, 0.0000
-0.2562, -0.0334, 0.0000
-0.9474, -0.1221, 0.0000
-0.6560, -0.0836, 0.0000
1.1067, 0.1393, 0.0000
-0.2424, -0.0302, 0.0000
0.9401, 0.1156, 0.0000
0.2145, 0.0261, 0.0000
-0.2958, -0.0355, 0.0000
-0.4063, -0.0482, 0.0000
-0.7424, -0.0870, 0.0000
0.5924, 0.0686, 0.0000
-1.1206, -0.1282, 0.0000
-0.8457, -0.0956, 0.0000
-1.1245, -0.1255, 0.0000
-0.4104, -0.0452, 0.0000
0.8718, 0.0949, 0.0000
0.2067, 0.0222, 0.0000
-0.2117, -0.0225, 0.0000
0.1297, 0.0136, 0.0000
0.6297, 0.0652, 0.0000
0.2763, 0.0282, 0.0000
-0.2470, -0.0249, 0.0000
0.9925, 0.0988, 0.0000
-0.6982, -0.0686, 0.0000
1.1512, 0.1116, 0.0000
-0.5880, -0.0562, 0.0000
-0.6808, -0.0642, 0.0000
0.5142, 0.0478, 0.0000
0.5362, 0.0492, 0.0000
-1.0612, -0.0961, 0.0000
-0.5689, -0.0508, 0.0000
0.0202, 0.0018, 0.0000
0.2086, 0.0181, 0.0000
1.0591, 0.0906, 0.0000
-0.1428, -0.0120, 0.0000
0.1771, 0.0147, 0.0000
-0.0765, -0.0063, 0.0000
-0.1165, -0.0094, 0.0000
-0.9774, -0.0778, 0.0000
-0.8547, -0.0670, 0.0000
-0.4268, -0.0329, 0.0000
0.6216, 0.0473, 0.0000
1.2948, 0.0969, 0.0000
-0.5202, -0.0384, 0.0000
0.3522, 0.0256, 0.0000
1.3033, 0.0931, 0.0000
0.4135, 0.0291, 0.0000
-0.8890, -0.0615, 0.0000
0.1743, 0.0119, 0.0000
0.3108, 0.0208, 0.0000
1.1867, 0.0781, 0.0000
-0.0385, -0.0025, 0.0000
-0.0026, -0.0002, 0.0000
0.9899, 0.0620, 0.0000
0.4471, 0.0275, 0.0000
1.2067, 0.0729, 0.0000
-0.5595, -0.0332, 0.0000
1.3377, 0.0780, 0.0000
0.2719, 0.0156, 0.0000
-1.0706, -0.0602, 0.0000
-0.6271, -0.0346, 0.0000
-0.3168, -0.0172, 0.0000
1.3101, 0.0696, 0.0000
-0.2094, -0.0109, 0.0000
0.6548, 0.0335, 0.0000
-0.5743, -0.0288, 0.0000
-0.4254, -0.0209, 0.0000
-1.1254, -0.0542, 0.0000
-1.4799, -0.0698, 0.0000
0.5884, 0.0272, 0.0000
-1.0941, -0.0495, 0.0000
-0.8902, -0.0394, 0.0000
1.1293, 0.0489, 0.0000
-0.3891, -0.0165, 0.0000
0.3863, 0.0160, 0.0000
-1.1315, -0.0458, 0.0000
1.1584, 0.0458, 0.0000
0.9836, 0.0380, 0.0000
0.4759, 0.0180, 0.0000
0.1408, 0.0052, 0.0000
0.5007, 0.0180, 0.0000
-0.0224, -0.0008, 0.0000
1.3430, 0.0458, 0.0000
-1.4774, -0.0491, 0.0000
-1.0866, -0.0352, 0.0000
1.2841, 0.0404, 0.0000
-1.4635, -0.0448, 0.0000
-1.5294, -0.0455, 0.0000
-0.9056, -0.0262, 0.0000
-1.3884, -0.0390, 0.0000
1.6378, 0.0446, 0.0000
-0.6981, -0.0184, 0.0000
-0.5956, -0.0152, 0.0000
0.5785, 0.0143, 0.0000
1.3255, 0.0317, 0.0000
0.0597, 0.0014, 0.0000
-1.2195, -0.0272, 0.0000
-0.3422, -0.0074, 0.0000
1.1799, 0.0244, 0.0000
1.4095, 0.0280, 0.0000
0.5007, 0.0096, 0.0000
1.2965, 0.0238, 0.0000
-0.9813, -0.0172, 0.0000
-1.7679, -0.0297, 0.0000
-0.6678, -0.0107, 0.0000
-1.0628, -0.0162, 0.0000
1.2242, 0.0178, 0.0000
1.6395, 0.0226, 0.0000
1.0637, 0.0139, 0.0000
0.3079, 0.0038, 0.0000
-1.0267, -0.0119, 0.0000
-1.8263, -0.0198, 0.0000
-1.1939, -0.0121, 0.0000
-1.4813, -0.0140, 0.0000
0.6011, 0.0052, 0.0000
1.2207, 0.0098, 0.0000
0.5595, 0.0041, 0.0000
-0.0501, -0.0003, 0.0000
-1.2433, -0.0074, 0.0000
-1.0604, -0.0056, 0.0000
-0.5940, -0.0027, 0.0000
-0.1122, -0.0004, 0.0000
-1.6472, -0.0053, 0.0000
1.0837, 0.0028, 0.0000
1.0977, 0.0021, 0.0000
-0.0025, -0.0000, 0.0000
-0.4898, -0.0003, 0.0000
-1.7331, -0.0000, 0.0000
0.7730, -0.0005, 0.0000
1.9000, -0.0024, 0.0000
0.8961, -0.0017, 0.0000
-1.5593, 0.0039, 0.0000
-0.1538, 0.0005, 0.0000
1.8034, -0.0067, 0.0000
1.5912, -0.0069, 0.0000
-0.6527, 0.0032, 0.0000
-0.2754, 0.0015, 0.0000
-1.8759, 0.0115, 0.0000
0.3688, -0.0025, 0.0000
-0.6036, 0.0044, 0.0000
-0.6051, 0.0048, 0.0000
1.2795, -0.0108, 0.0000
0.1173, -0.0011, 0.0000
-0.3592, 0.0034, 0.0000
0.5238, -0.0053, 0.0000
-0.4238, 0.0045, 0.0000
-0.8621, 0.0097, 0.0000
-0.2690, 0.0032, 0.0000
-1.1744, 0.0144, 0.0000
-0.2630, 0.0034, 0.0000
1.9766, -0.0264, 0.0000
-0.6452, 0.0089, 0.0000
-1.4984, 0.0215, 0.0000
1.6836, -0.0251, 0.0000
-0.5657, 0.0087, 0.0000
-0.3818, 0.0061, 0.0000
-0.5552, 0.0091, 0.0000
-1.5662, 0.0265, 0.0000
-1.2652, 0.0220, 0.0000
1.3824, -0.0247, 0.0000
2.2298, -0.0409, 0.0000
0.3718, -0.0070, 0.0000
-0.0520, 0.0010, 0.0000
1.8631, -0.0368, 0.0000
1.5351, -0.0311, 0.0000
0.4549, -0.0094, 0.0000
1.9229, -0.0407, 0.0000
-1.5183, 0.0328, 0.0000
1.0166, -0.0224, 0.0000
1.0749, -0.0242, 0.0000
-1.6097, 0.0369, 0.0000
-0.0256, 0.0006, 0.0000
0.9096, -0.0216, 0.0000
-1.8960, 0.0459, 0.0000
-1.2209, 0.0301, 0.0000
1.5710, -0.0394, 0.0000
-1.6723, 0.0426, 0.0000
-0.1120, 0.0029, 0.0000
0.6392, -0.0168, 0.0000
0.3143, -0.0084, 0.0000
0.1792, -0.0049, 0.0000
1.5710, -0.0432, 0.0000
-0.6513, 0.0181, 0.0000
-1.9144, 0.0541, 0.0000
0.9488, -0.0272, 0.0000
1.7340, -0.0503, 0.0000
2.3457, -0.0689, 0.0000
-2.4532, 0.0729, 0.0000
-2.3474, 0.0707, 0.0000
-2.1755, 0.0663, 0.0000
-1.6023, 0.0494, 0.0000
0.1692, -0.0053, 0.0000
0.8931, -0.0281, 0.0000
0.5128, -0.0163, 0.0000
1.2058, -0.0388, 0.0000
0.8834, -0.0287, 0.0000
1.3465, -0.0443, 0.0000
2.0941, -0.0695, 0.0000
-1.5239, 0.0511, 0.0000
-0.0978, 0.0033, 0.0000
-1.4202, 0.0485, 0.0000
-2.5587, 0.0882, 0.0000
-0.9174, 0.0319, 0.0000
-0.3831, 0.0134, 0.0000
2.1758, -0.0770, 0.0000
1.1574, -0.0413, 0.0000
-1.7828, 0.0642, 0.0000
-2.2447, 0.0814, 0.0000
-1.0641, 0.0389, 0.0000
-1.9611, 0.0723, 0.0000
-2.5131, 0.0933, 0.0000
-0.9143, 0.0342, 0.0000
0.4506, -0.0170, 0.0000
1.1454, -0.0435, 0.0000
-1.0062, 0.0385, 0.0000
0.6330, -0.0244, 0.0000
-0.7409, 0.0287, 0.0000
2.6830, -0.1046, 0.0000
-1.0466, 0.0411, 0.0000
-0.6119, 0.0242, 0.0000
2.2163, -0.0881, 0.0000
0.5778, -0.0231, 0.0000
-1.3867, 0.0558, 0.0000
-0.9307, 0.0376, 0.0000
1.6680, -0.0679, 0.0000
-1.8737, 0.0767, 0.0000
-1.0321, 0.0425, 0.0000
-2.7460, 0.1136, 0.0000
-1.4602, 0.0607, 0.0000
-0.5185, 0.0217, 0.0000
-1.5451, 0.0649, 0.0000
0.7381, -0.0312, 0.0000
2.4295, -0.1030, 0.0000
2.3962, -0.1021, 0.0000
-1.4933, 0.0639, 0.0000
-1.4334, 0.0617, 0.0000
1.5101, -0.0652, 0.0000
-0.9208, 0.0400, 0.0000
1.8194, -0.0793, 0.0000
1.2939, -0.0566, 0.0000
-2.9500, 0.1296, 0.0000
-0.8062, 0.0356, 0.0000
-0.9899, 0.0438, 0.0000
-1.9539, 0.0869, 0.0000
-1.7121, 0.0764, 0.0000
-1.1579, 0.0519, 0.0000
0.7275, -0.0327, 0.0000
1.5466, -0.0698, 0.0000
-0.6912, 0.0313, 0.0000
2.0137, -0.0915, 0.0000
-1.0743, 0.0489, 0.0000
2.1431, -0.0980, 0.0000
2.4369, -0.1117, 0.0000
-0.9973, 0.0459, 0.0000
1.0805, -0.0498, 0.0000
1.7263, -0.0799, 0.0000
1.7278, -0.0802, 0.0000
-2.9557, 0.1375, 0.0000
-1.0496, 0.0490, 0.0000
0.5022, -0.0235, 0.0000
-2.6686, 0.1251, 0.0000
-1.0559, 0.0496, 0.0000
2.5726, -0.1212, 0.0000
-0.9715, 0.0459, 0.0000
2.4833, -0.1176, 0.0000
1.3735, -0.0652, 0.0000
2.3064, -0.1097, 0.0000
-2.1608, 0.1030, 0.0000
1.5012, -0.0717, 0.0000
1.7181, -0.0822, 0.0000
2.9295, -0.1404, 0.0000
-0.6545, 0.0314, 0.0000
-1.4763, 0.0710, 0.0000
0.7397, -0.0356, 0.0000
1.9495, -0.0941, 0.0000
1.5428, -0.0746, 0.0000
-0.9157, 0.0443, 0.0000
-2.8025, 0.1359, 0.0000
-1.3007, 0.0632, 0.0000
-0.4223, 0.0205, 0.0000
0.7810, -0.0380, 0.0000
0.6249, -0.0305, 0.0000
0.3448, -0.0168, 0.0000
1.6767, -0.0820, 0.0000
2.0170, -0.0987, 0.0000
-0.4337, 0.0213, 0.0000
0.2722, -0.0134, 0.0000
-3.2685, 0.1605, 0.0000
-2.8128, 0.1382, 0.0000
-1.9116, 0.0940, 0.0000
2.1304, -0.1049, 0.0000
-2.2884, 0.1127, 0.0000
3.0571, -0.1507, 0.0000
-0.0305, 0.0015, 0.0000
-2.2501, 0.1111, 0.0000
-3.3269, 0.1643, 0.0000
-3.5141, 0.1737, 0.0000
-2.2435, 0.1109, 0.0000
2.9737, -0.1471, 0.0000
-1.3751, 0.0681, 0.0000
1.4129, -0.0699, 0.0000
-2.8936, 0.1433, 0.0000
2.9548, -0.1464, 0.0000
3.4302, -0.1700, 0.0000
-0.9500, 0.0471, 0.0000
-0.3352, 0.0166, 0.0000
-3.3821, 0.1676, 0.0000
-1.3092, 0.0649, 0.0000
1.5156, -0.0751, 0.0000
-1.3901, 0.0689, 0.0000
-3.5351, 0.1752, 0.0000
1.4243, -0.0706, 0.0000
-1.5368, 0.0761, 0.0000
0.3890, -0.0193, 0.0000
-2.9823, 0.1477, 0.0000
1.7823, -0.0882, 0.0000
-0.0348, 0.0017, 0.0000
3.2205, -0.1593, 0.0000
-0.5046, 0.0250, 0.0000
2.3758, -0.1174, 0.0000
0.5937, -0.0293, 0.0000
2.5125, -0.1240, 0.0000
-3.8117, 0.1881, 0.0000
0.2527, -0.0125, 0.0000
-3.7176, 0.1832, 0.0000
-3.7133, 0.1828, 0.0000
-0.2134, 0.0105, 0.0000
0.6998, -0.0344, 0.0000
2.6870, -0.1320, 0.0000
1.8932, -0.0929, 0.0000
-1.2820, 0.0629, 0.0000
0.2517, -0.0123, 0.0000
-2.7228, 0.1333, 0.0000
-3.1893, 0.1559, 0.0000
-1.6816, 0.0821, 0.0000
-0.8167, 0.0398, 0.0000
-1.9518, 0.0951, 0.0000
0.3087, -0.0150, 0.0000
1.7897, -0.0870, 0.0000
1.9704, -0.0957, 0.0000
-0.1383, 0.0067, 0.0000
-1.0580, 0.0512, 0.0000
0.8745, -0.0423, 0.0000
-0.1418, 0.0068, 0.0000
-1.6540, 0.0798, 0.0000
2.2102, -0.1064, 0.0000
4.0101, -0.1928, 0.0000
3.7122, -0.1782, 0.0000
3.4920, -0.1673, 0.0000
0.4843, -0.0232, 0.0000
0.5050, -0.0241, 0.0000
2.2709, -0.1083, 0.0000
2.6487, -0.1261, 0.0000
-0.4592, 0.0218, 0.0000
-0.0881, 0.0042, 0.0000
-4.0530, 0.1919, 0.0000
-0.9044, 0.0427, 0.0000
1.8767, -0.0885, 0.0000
-3.7589, 0.1769, 0.0000
0.7178, -0.0337, 0.0000
4.2064, -0.1972, 0.0000
-3.9384, 0.1842, 0.0000
-0.5285, 0.0247, 0.0000
1.6667, -0.0776, 0.0000
3.6664, -0.1704, 0.0000
-2.4115, 0.1118, 0.0000
-2.3187, 0.1073, 0.0000
-3.6309, 0.1676, 0.0000
-3.2149, 0.1481, 0.0000
-2.1837, 0.1003, 0.0000
2.8308, -0.1298, 0.0000
-0.6936, 0.0317, 0.0000
0.0751, -0.0034, 0.0000
4.3360, -0.1973, 0.0000
-0.8332, 0.0378, 0.0000
0.5893, -0.0267, 0.0000
-0.9981, 0.0451, 0.0000
-3.7583, 0.1692, 0.0000
-3.3552, 0.1507, 0.0000
-2.3205, 0.1039, 0.0000
-1.5960, 0.0713, 0.0000
-1.8026, 0.0803, 0.0000
1.3747, -0.0611, 0.0000
-3.1116, 0.1378, 0.0000
2.4623, -0.1087, 0.0000
4.0450, -0.1781, 0.0000
0.2473, -0.0109, 0.0000
1.0759, -0.0471, 0.0000
-4.0524, 0.1768, 0.0000
-0.7436, 0.0323, 0.0000
3.7979, -0.1647, 0.0000
4.1187, -0.1780, 0.0000
0.4131, -0.0178, 0.0000
1.8080, -0.0777, 0.0000
-1.2664, 0.0542, 0.0000
-2.6487, 0.1130, 0.0000
0.7428, -0.0316, 0.0000
-2.8399, 0.1204, 0.0000
1.5383, -0.0650, 0.0000
-3.3947, 0.1429, 0.0000
0.4951, -0.0208, 0.0000
1.3090, -0.0547, 0.0000
3.7914, -0.1579, 0.0000
1.6569, -0.0688, 0.0000
2.1845, -0.0903, 0.0000
3.6034, -0.1485, 0.0000
-0.1578, 0.0065, 0.0000
-2.7092, 0.1108, 0.0000
0.1320, -0.0054, 0.0000
-4.3733, 0.1775, 0.0000
-1.7796, 0.0719, 0.0000
1.1446, -0.0461, 0.0000
-0.3905, 0.0157, 0.0000
-4.7111, 0.1882, 0.0000
-0.7250, 0.0289, 0.0000
-2.9623, 0.1174, 0.0000
1.2121, -0.0478, 0.0000
2.6236, -0.1031, 0.0000
-4.3673, 0.1710, 0.0000
0.1132, -0.0044, 0.0000
-0.9503, 0.0369, 0.0000
4.7111, -0.1821, 0.0000
3.3208, -0.1278, 0.0000
-0.0861, 0.0033, 0.0000
2.9274, -0.1117, 0.0000
0.4303, -0.0163, 0.0000
-4.0534, 0.1533, 0.0000
-1.9484, 0.0733, 0.0000
1.8474, -0.0692, 0.0000
-1.3846, 0.0516, 0.0000
-4.5967, 0.1707, 0.0000
3.9245, -0.1450, 0.0000
3.1858, -0.1172, 0.0000
4.1809, -0.1530, 0.0000
1.9346, -0.0705, 0.0000
-3.3848, 0.1227, 0.0000
3.8363, -0.1384, 0.0000
0.1631, -0.0059, 0.0000
0.8553, -0.0305, 0.0000
-4.1341, 0.1469, 0.0000
-3.8092, 0.1347, 0.0000
3.0846, -0.1085, 0.0000
-1.2602, 0.0441, 0.0000
-4.7624, 0.1658, 0.0000
2.3240, -0.0805, 0.0000
-0.2251, 0.0078, 0.0000
-3.4855, 0.1194, 0.0000
3.6728, -0.1252, 0.0000
-3.9780, 0.1349, 0.0000
0.5175, -0.0174, 0.0000
4.7296, -0.1586, 0.0000
4.2714, -0.1424, 0.0000
0.1965, -0.0065, 0.0000
-4.1763, 0.1377, 0.0000
-3.1942, 0.1047, 0.0000
5.3689, -0.1750, 0.0000
2.6468, -0.0858, 0.0000
-3.2081, 0.1034, 0.0000
-1.2765, 0.0409, 0.0000
-2.9667, 0.0945, 0.0000
1.9349, -0.0612, 0.0000
3.4043, -0.1071, 0.0000
2.4093, -0.0753, 0.0000
3.0925, -0.0961, 0.0000
4.7818, -0.1477, 0.0000
5.0648, -0.1555, 0.0000
-5.4131, 0.1651, 0.0000
-4.2918, 0.1301, 0.0000
1.5367, -0.0463, 0.0000
-5.1655, 0.1546, 0.0000
-5.1264, 0.1524, 0.0000
-0.4114, 0.0122, 0.0000
-4.5868, 0.1346, 0.0000
-0.6212, 0.0181, 0.0000
-1.9048, 0.0551, 0.0000
0.6111, -0.0176, 0.0000
-2.7732, 0.0792, 0.0000
-2.6026, 0.0738, 0.0000
-0.5048, 0.0142, 0.0000
-3.6811, 0.1030, 0.0000
-3.2151, 0.0893, 0.0000
-3.0568, 0.0843, 0.0000
-3.4652, 0.0949, 0.0000
-2.9729, 0.0808, 0.0000
2.5645, -0.0692, 0.0000
-3.0621, 0.0820, 0.0000
1.0875, -0.0289, 0.0000
4.3579, -0.1150, 0.0000
2.2392, -0.0586, 0.0000
-2.1177, 0.0550, 0.0000
-3.5507, 0.0916, 0.0000
-4.3345, 0.1109, 0.0000
4.7502, -0.1206, 0.0000
-5.7101, 0.1439, 0.0000
3.0766, -0.0769, 0.0000
-1.3041, 0.0323, 0.0000
-4.2131, 0.1036, 0.0000
-0.6479, 0.0158, 0.0000
-1.5795, 0.0382, 0.0000
-3.7356, 0.0896, 0.0000
-3.7518, 0.0893, 0.0000
2.1450, -0.0506, 0.0000
0.1292, -0.0030, 0.0000
0.4718, -0.0109, 0.0000
-4.2532, 0.0978, 0.0000
0.1679, -0.0038, 0.0000
4.8458, -0.1095, 0.0000
-3.5518, 0.0795, 0.0000
-3.1351, 0.0696, 0.0000
-2.0236, 0.0445, 0.0000
-0.9549, 0.0208, 0.0000
-3.9864, 0.0861, 0.0000
6.1058, -0.1306, 0.0000
5.5264, -0.1171, 0.0000
-4.5903, 0.0963, 0.0000
0.3643, -0.0076, 0.0000
3.6731, -0.0756, 0.0000
-3.8872, 0.0792, 0.0000
4.6192, -0.0932, 0.0000
-3.3929, 0.0678, 0.0000
-4.5141, 0.0893, 0.0000
0.2579, -0.0050, 0.0000
-5.2172, 0.1011, 0.0000
0.3345, -0.0064, 0.0000
2.9585, -0.0562, 0.0000
2.9237, -0.0549, 0.0000
3.1282, -0.0581, 0.0000
-5.5887, 0.1027, 0.0000
-0.4051, 0.0074, 0.0000
0.5781, -0.0104, 0.0000
5.9454, -0.1057, 0.0000
3.9868, -0.0701, 0.0000
1.5193, -0.0264, 0.0000
-5.8910, 0.1012, 0.0000
-0.1264, 0.0021, 0.0000
5.1204, -0.0860, 0.0000
2.2567, -0.0374, 0.0000
-3.2815, 0.0538, 0.0000
0.2792, -0.0045, 0.0000
-2.2374, 0.0358, 0.0000
1.2430, -0.0196, 0.0000
-1.4226, 0.0222, 0.0000
6.4561, -0.0994, 0.0000
3.0533, -0.0464, 0.0000
4.1327, -0.0620, 0.0000
-2.4644, 0.0365, 0.0000
-1.5646, 0.0229, 0.0000
6.3925, -0.0922, 0.0000
-1.7667, 0.0251, 0.0000
-1.3331, 0.0187, 0.0000
-2.5163, 0.0348, 0.0000
4.4712, -0.0610, 0.0000
3.6499, -0.0491, 0.0000
6.7356, -0.0892, 0.0000
3.3713, -0.0440, 0.0000
6.7769, -0.0871, 0.0000
-0.8942, 0.0113, 0.0000
-3.4707, 0.0433, 0.0000
-4.4391, 0.0545, 0.0000
2.2509, -0.0272, 0.0000
0.3293, -0.0039, 0.0000
-6.8819, 0.0805, 0.0000
6.5643, -0.0755, 0.0000
-0.2601, 0.0029, 0.0000
-5.9205, 0.0659, 0.0000
0.2880, -0.0031, 0.0000
-6.7697, 0.0727, 0.0000
-1.3320, 0.0141, 0.0000
6.2402, -0.0647, 0.0000
1.9751, -0.0201, 0.0000
-5.7157, 0.0571, 0.0000
5.8789, -0.0576, 0.0000
3.1801, -0.0306, 0.0000
-3.0240, 0.0285, 0.0000
0.0177, -0.0002, 0.0000
1.7309, -0.0157, 0.0000
-1.4999, 0.0133, 0.0000
-5.3373, 0.0463, 0.0000
-5.5088, 0.0468, 0.0000
-1.8176, 0.0151, 0.0000
0.0407, -0.0003, 0.0000
0.6088, -0.0048, 0.0000
-5.5754, 0.0432, 0.0000
3.9841, -0.0301, 0.0000
-6.1663, 0.0455, 0.0000
3.7176, -0.0268, 0.0000
5.9215, -0.0416, 0.0000
1.1117, -0.0076, 0.0000
3.9642, -0.0264, 0.0000
2.8542, -0.0185, 0.0000
-3.9393, 0.0248, 0.0000
5.6047, -0.0343, 0.0000
1.1978, -0.0071, 0.0000
-1.4745, 0.0085, 0.0000
-0.0079, 0.0000, 0.0000
1.8119, -0.0098, 0.0000
0.8066, -0.0042, 0.0000
1.4170, -0.0071, 0.0000
6.5563, -0.0319, 0.0000
4.7424, -0.0223, 0.0000
-4.0348, 0.0182, 0.0000
3.8720, -0.0168, 0.0000
-2.1231, 0.0088, 0.0000
6.4978, -0.0260, 0.0000
2.0211, -0.0077, 0.0000
-3.4075, 0.0124, 0.0000
5.8596, -0.0204, 0.0000
3.2211, -0.0106, 0.0000
5.6428, -0.0177, 0.0000
0.6395, -0.0019, 0.0000
4.2134, -0.0118, 0.0000
-1.7912, 0.0047, 0.0000
-2.1258, 0.0052, 0.0000
-5.5309, 0.0127, 0.0000
0.5216, -0.0011, 0.0000
2.3169, -0.0045, 0.0000
-0.2743, 0.0005, 0.0000
2.8643, -0.0046, 0.0000
2.9236, -0.0043, 0.0000
-0.0393, 0.0001, 0.0000
-7.6483, 0.0086, 0.0000
7.6575, -0.0074, 0.0000
-1.9217, 0.0015, 0.0000
-6.3133, 0.0041, 0.0000
2.2351, -0.0011, 0.0000
-2.6040, 0.0008, 0.0000
4.3218, -0.0007, 0.0000
