-1.1182	0.0000	0.0000
-0.9352	0.3081	0.0000
-0.8683	0.6420	0.0000
-0.5229	0.7389	0.0000
-0.3486	1.1368	0.0000
0.0220	1.0597	0.0000
0.3746	1.0621	0.0000
0.6531	0.8461	0.0000
0.8959	0.6065	0.0000
1.0366	0.2945	0.0000
0.9672	-0.0402	0.0000
0.8861	-0.3334	0.0000
0.7542	-0.6076	0.0000
0.4853	-0.7500	0.0000
0.2962	-1.1315	0.0000
-0.0722	-1.1589	0.0000
-0.2985	-0.7462	0.0000
-0.6738	-0.8018	0.0000
-0.7485	-0.4626	0.0000
-1.0476	-0.2511	0.0000