# MagX, MagY, MagZ
0.0000, 0.0000, 0.0000
0.0000, 0.0063, 0.0000
0.0002, 0.0126, 0.0000
0.0004, 0.0188, 0.0000
0.0006, 0.0251, 0.0000
0.0010, 0.0314, 0.0000
0.0014, 0.0377, 0.0000
0.0019, 0.0440, 0.0000
0.0025, 0.0502, 0.0000
0.0032, 0.0565, 0.0000
0.0039, 0.0628, 0.0000
0.0048, 0.0691, 0.0000
0.0057, 0.0753, 0.0000
0.0067, 0.0816, 0.0000
0.0077, 0.0879, 0.0000
0.0089, 0.0941, 0.0000
0.0101, 0.1004, 0.0000
0.0114, 0.1066, 0.0000
0.0128, 0.1129, 0.0000
0.0143, 0.1191, 0.0000
0.0158, 0.1253, 0.0000
0.0174, 0.1316, 0.0000
0.0191, 0.1378, 0.0000
0.0209, 0.1440, 0.0000
0.0227, 0.1502, 0.0000
0.0247, 0.1564, 0.0000
0.0267, 0.1626, 0.0000
0.0288, 0.1688, 0.0000
0.0310, 0.1750, 0.0000
0.0332, 0.1812, 0.0000
0.0355, 0.1874, 0.0000
0.0379, 0.1935, 0.0000
0.0404, 0.1997, 0.0000
0.0430, 0.2059, 0.0000
0.0456, 0.2120, 0.0000
0.0484, 0.2181, 0.0000
0.0512, 0.2243, 0.0000
0.0540, 0.2304, 0.0000
0.0570, 0.2365, 0.0000
0.0600, 0.2426, 0.0000
0.0632, 0.2487, 0.0000
0.0664, 0.2548, 0.0000
0.0696, 0.2608, 0.0000
0.0730, 0.2669, 0.0000
0.0764, 0.2730, 0.0000
0.0799, 0.2790, 0.0000
0.0835, 0.2850, 0.0000
0.0872, 0.2910, 0.0000
0.0910, 0.2970, 0.0000
0.0948, 0.3030, 0.0000
0.0987, 0.3090, 0.0000
0.1027, 0.3150, 0.0000
0.1067, 0.3209, 0.0000
0.1109, 0.3269, 0.0000
0.1151, 0.3328, 0.0000
0.1194, 0.3387, 0.0000
0.1238, 0.3446, 0.0000
0.1283, 0.3505, 0.0000
0.1328, 0.3564, 0.0000
0.1374, 0.3623, 0.0000
0.1421, 0.3681, 0.0000
0.1469, 0.3740, 0.0000
0.1518, 0.3798, 0.0000
0.1567, 0.3856, 0.0000
0.1617, 0.3914, 0.0000
0.1668, 0.3971, 0.0000
0.1720, 0.4029, 0.0000
0.1772, 0.4086, 0.0000
0.1825, 0.4144, 0.0000
0.1880, 0.4201, 0.0000
0.1934, 0.4258, 0.0000
0.1990, 0.4315, 0.0000
0.2047, 0.4371, 0.0000
0.2104, 0.4428, 0.0000
0.2162, 0.4484, 0.0000
0.2221, 0.4540, 0.0000
0.2280, 0.4596, 0.0000
0.2341, 0.4652, 0.0000
0.2402, 0.4707, 0.0000
0.2464, 0.4762, 0.0000
0.2527, 0.4818, 0.0000
0.2590, 0.4873, 0.0000
0.2655, 0.4927, 0.0000
0.2720, 0.4982, 0.0000
0.2786, 0.5036, 0.0000
0.2852, 0.5090, 0.0000
0.2920, 0.5144, 0.0000
0.2988, 0.5198, 0.0000
0.3057, 0.5252, 0.0000
0.3127, 0.5305, 0.0000
0.3198, 0.5358, 0.0000
0.3269, 0.5411, 0.0000
0.3341, 0.5464, 0.0000
0.3414, 0.5516, 0.0000
0.3488, 0.5569, 0.0000
0.3563, 0.5621, 0.0000
0.3638, 0.5673, 0.0000
0.3715, 0.5724, 0.0000
0.3792, 0.5776, 0.0000
0.3869, 0.5827, 0.0000
0.3948, 0.5878, 0.0000
0.4027, 0.5929, 0.0000
0.4107, 0.5979, 0.0000
0.4188, 0.6029, 0.0000
0.4270, 0.6079, 0.0000
0.4352, 0.6129, 0.0000
0.4436, 0.6179, 0.0000
0.4520, 0.6228, 0.0000
0.4605, 0.6277, 0.0000
0.4690, 0.6326, 0.0000
0.4777, 0.6374, 0.0000
0.4864, 0.6423, 0.0000
0.4952, 0.6471, 0.0000
0.5041, 0.6518, 0.0000
0.5131, 0.6566, 0.0000
0.5221, 0.6613, 0.0000
0.5312, 0.6660, 0.0000
0.5404, 0.6707, 0.0000
0.5497, 0.6753, 0.0000
0.5591, 0.6800, 0.0000
0.5685, 0.6845, 0.0000
0.5780, 0.6891, 0.0000
0.5876, 0.6937, 0.0000
0.5973, 0.6982, 0.0000
0.6070, 0.7026, 0.0000
0.6169, 0.7071, 0.0000
0.6268, 0.7115, 0.0000
0.6367, 0.7159, 0.0000
0.6468, 0.7203, 0.0000
0.6570, 0.7247, 0.0000
0.6672, 0.7290, 0.0000
0.6775, 0.7333, 0.0000
0.6879, 0.7375, 0.0000
0.6983, 0.7417, 0.0000
0.7089, 0.7459, 0.0000
0.7195, 0.7501, 0.0000
0.7302, 0.7543, 0.0000
0.7410, 0.7584, 0.0000
0.7518, 0.7624, 0.0000
0.7628, 0.7665, 0.0000
0.7738, 0.7705, 0.0000
0.7849, 0.7745, 0.0000
0.7960, 0.7785, 0.0000
0.8073, 0.7824, 0.0000
0.8186, 0.7863, 0.0000
0.8300, 0.7902, 0.0000
0.8415, 0.7940, 0.0000
0.8531, 0.7978, 0.0000
0.8647, 0.8016, 0.0000
0.8765, 0.8053, 0.0000
0.8883, 0.8090, 0.0000
0.9001, 0.8127, 0.0000
0.9121, 0.8163, 0.0000
0.9242, 0.8200, 0.0000
0.9363, 0.8235, 0.0000
0.9485, 0.8271, 0.0000
0.9607, 0.8306, 0.0000
0.9731, 0.8341, 0.0000
0.9855, 0.8375, 0.0000
0.9981, 0.8409, 0.0000
1.0106, 0.8443, 0.0000
1.0233, 0.8477, 0.0000
1.0361, 0.8510, 0.0000
1.0489, 0.8543, 0.0000
1.0618, 0.8575, 0.0000
1.0748, 0.8607, 0.0000
1.0879, 0.8639, 0.0000
1.1010, 0.8671, 0.0000
1.1142, 0.8702, 0.0000
1.1275, 0.8733, 0.0000
1.1409, 0.8763, 0.0000
1.1544, 0.8793, 0.0000
1.1679, 0.8823, 0.0000
1.1815, 0.8852, 0.0000
1.1952, 0.8881, 0.0000
1.2090, 0.8910, 0.0000
1.2229, 0.8938, 0.0000
1.2368, 0.8966, 0.0000
1.2508, 0.8994, 0.0000
1.2649, 0.9021, 0.0000
1.2791, 0.9048, 0.0000
1.2934, 0.9075, 0.0000
1.3077, 0.9101, 0.0000
1.3221, 0.9127, 0.0000
1.3366, 0.9152, 0.0000
1.3511, 0.9178, 0.0000
1.3658, 0.9202, 0.0000
1.3805, 0.9227, 0.0000
1.3953, 0.9251, 0.0000
1.4102, 0.9274, 0.0000
1.4252, 0.9298, 0.0000
1.4402, 0.9321, 0.0000
1.4553, 0.9343, 0.0000
1.4705, 0.9365, 0.0000
1.4858, 0.9387, 0.0000
1.5012, 0.9409, 0.0000
1.5166, 0.9430, 0.0000
1.5321, 0.9451, 0.0000
1.5477, 0.9471, 0.0000
1.5634, 0.9491, 0.0000
1.5791, 0.9511, 0.0000
1.5950, 0.9530, 0.0000
1.6109, 0.9549, 0.0000
1.6269, 0.9567, 0.0000
1.6429, 0.9585, 0.0000
1.6591, 0.9603, 0.0000
1.6753, 0.9620, 0.0000
1.6916, 0.9637, 0.0000
1.7080, 0.9654, 0.0000
1.7245, 0.9670, 0.0000
1.7410, 0.9686, 0.0000
1.7576, 0.9701, 0.0000
1.7743, 0.9716, 0.0000
1.7911, 0.9731, 0.0000
1.8080, 0.9745, 0.0000
1.8249, 0.9759, 0.0000
1.8419, 0.9773, 0.0000
1.8590, 0.9786, 0.0000
1.8762, 0.9799, 0.0000
1.8934, 0.9811, 0.0000
1.9108, 0.9823, 0.0000
1.9282, 0.9834, 0.0000
1.9457, 0.9846, 0.0000
1.9632, 0.9856, 0.0000
1.9809, 0.9867, 0.0000
1.9986, 0.9877, 0.0000
2.0164, 0.9887, 0.0000
2.0343, 0.9896, 0.0000
2.0522, 0.9905, 0.0000
2.0703, 0.9913, 0.0000
2.0884, 0.9921, 0.0000
2.1066, 0.9929, 0.0000
2.1249, 0.9936, 0.0000
2.1432, 0.9943, 0.0000
2.1617, 0.9950, 0.0000
2.1802, 0.9956, 0.0000
2.1988, 0.9961, 0.0000
2.2175, 0.9967, 0.0000
2.2362, 0.9972, 0.0000
2.2550, 0.9976, 0.0000
2.2740, 0.9980, 0.0000
2.2929, 0.9984, 0.0000
2.3120, 0.9987, 0.0000
2.3312, 0.9990, 0.0000
2.3504, 0.9993, 0.0000
2.3697, 0.9995, 0.0000
2.3891, 0.9997, 0.0000
2.4085, 0.9998, 0.0000
2.4281, 0.9999, 0.0000
2.4477, 1.0000, 0.0000
2.4674, 1.0000, 0.0000
2.4872, 1.0000, 0.0000
2.5070, 0.9999, 0.0000
2.5270, 0.9998, 0.0000
2.5470, 0.9997, 0.0000
2.5671, 0.9995, 0.0000
2.5873, 0.9993, 0.0000
2.6075, 0.9990, 0.0000
2.6278, 0.9987, 0.0000
2.6483, 0.9984, 0.0000
2.6687, 0.9980, 0.0000
2.6893, 0.9976, 0.0000
2.7100, 0.9972, 0.0000
2.7307, 0.9967, 0.0000
2.7515, 0.9961, 0.0000
2.7724, 0.9956, 0.0000
2.7933, 0.9950, 0.0000
2.8144, 0.9943, 0.0000
2.8355, 0.9936, 0.0000
2.8567, 0.9929, 0.0000
2.8780, 0.9921, 0.0000
2.8993, 0.9913, 0.0000
2.9208, 0.9905, 0.0000
2.9423, 0.9896, 0.0000
2.9639, 0.9887, 0.0000
2.9856, 0.9877, 0.0000
3.0073, 0.9867, 0.0000
3.0291, 0.9856, 0.0000
3.0511, 0.9846, 0.0000
3.0730, 0.9834, 0.0000
3.0951, 0.9823, 0.0000
3.1173, 0.9811, 0.0000
3.1395, 0.9799, 0.0000
3.1618, 0.9786, 0.0000
3.1842, 0.9773, 0.0000
3.2066, 0.9759, 0.0000
3.2292, 0.9745, 0.0000
3.2518, 0.9731, 0.0000
3.2745, 0.9716, 0.0000
3.2973, 0.9701, 0.0000
3.3201, 0.9686, 0.0000
3.3431, 0.9670, 0.0000
3.3661, 0.9654, 0.0000
3.3892, 0.9637, 0.0000
3.4124, 0.9620, 0.0000
3.4356, 0.9603, 0.0000
3.4589, 0.9585, 0.0000
3.4824, 0.9567, 0.0000
3.5058, 0.9549, 0.0000
3.5294, 0.9530, 0.0000
3.5531, 0.9511, 0.0000
3.5768, 0.9491, 0.0000
3.6006, 0.9471, 0.0000
3.6245, 0.9451, 0.0000
3.6484, 0.9430, 0.0000
3.6725, 0.9409, 0.0000
3.6966, 0.9387, 0.0000
3.7208, 0.9365, 0.0000
3.7451, 0.9343, 0.0000
3.7694, 0.9321, 0.0000
3.7939, 0.9298, 0.0000
3.8184, 0.9274, 0.0000
3.8430, 0.9251, 0.0000
3.8677, 0.9227, 0.0000
3.8924, 0.9202, 0.0000
3.9172, 0.9178, 0.0000
3.9422, 0.9152, 0.0000
3.9671, 0.9127, 0.0000
3.9922, 0.9101, 0.0000
4.0174, 0.9075, 0.0000
4.0426, 0.9048, 0.0000
4.0679, 0.9021, 0.0000
4.0933, 0.8994, 0.0000
4.1187, 0.8966, 0.0000
4.1443, 0.8938, 0.0000
4.1699, 0.8910, 0.0000
4.1956, 0.8881, 0.0000
4.2214, 0.8852, 0.0000
4.2472, 0.8823, 0.0000
4.2732, 0.8793, 0.0000
4.2992, 0.8763, 0.0000
4.3253, 0.8733, 0.0000
4.3515, 0.8702, 0.0000
4.3777, 0.8671, 0.0000
4.4041, 0.8639, 0.0000
4.4305, 0.8607, 0.0000
4.4570, 0.8575, 0.0000
4.4835, 0.8543, 0.0000
4.5102, 0.8510, 0.0000
4.5369, 0.8477, 0.0000
4.5637, 0.8443, 0.0000
4.5906, 0.8409, 0.0000
4.6176, 0.8375, 0.0000
4.6446, 0.8341, 0.0000
4.6717, 0.8306, 0.0000
4.6989, 0.8271, 0.0000
4.7262, 0.8235, 0.0000
4.7536, 0.8200, 0.0000
4.7810, 0.8163, 0.0000
4.8085, 0.8127, 0.0000
4.8361, 0.8090, 0.0000
4.8638, 0.8053, 0.0000
4.8915, 0.8016, 0.0000
4.9194, 0.7978, 0.0000
4.9473, 0.7940, 0.0000
4.9753, 0.7902, 0.0000
5.0033, 0.7863, 0.0000
5.0315, 0.7824, 0.0000
5.0597, 0.7785, 0.0000
5.0880, 0.7745, 0.0000
5.1164, 0.7705, 0.0000
5.1449, 0.7665, 0.0000
5.1734, 0.7624, 0.0000
5.2020, 0.7584, 0.0000
5.2307, 0.7543, 0.0000
5.2595, 0.7501, 0.0000
5.2884, 0.7459, 0.0000
5.3173, 0.7417, 0.0000
5.3463, 0.7375, 0.0000
5.3754, 0.7333, 0.0000
5.4046, 0.7290, 0.0000
5.4338, 0.7247, 0.0000
5.4632, 0.7203, 0.0000
5.4926, 0.7159, 0.0000
5.5221, 0.7115, 0.0000
5.5517, 0.7071, 0.0000
5.5813, 0.7026, 0.0000
5.6110, 0.6982, 0.0000
5.6408, 0.6937, 0.0000
5.6707, 0.6891, 0.0000
5.7007, 0.6845, 0.0000
5.7307, 0.6800, 0.0000
5.7608, 0.6753, 0.0000
5.7910, 0.6707, 0.0000
5.8213, 0.6660, 0.0000
5.8517, 0.6613, 0.0000
5.8821, 0.6566, 0.0000
5.9126, 0.6518, 0.0000
5.9432, 0.6471, 0.0000
5.9739, 0.6423, 0.0000
6.0047, 0.6374, 0.0000
6.0355, 0.6326, 0.0000
6.0664, 0.6277, 0.0000
6.0974, 0.6228, 0.0000
6.1285, 0.6179, 0.0000
6.1596, 0.6129, 0.0000
6.1908, 0.6079, 0.0000
6.2222, 0.6029, 0.0000
6.2535, 0.5979, 0.0000
6.2850, 0.5929, 0.0000
6.3165, 0.5878, 0.0000
6.3482, 0.5827, 0.0000
6.3799, 0.5776, 0.0000
6.4117, 0.5724, 0.0000
6.4435, 0.5673, 0.0000
6.4754, 0.5621, 0.0000
6.5075, 0.5569, 0.0000
6.5396, 0.5516, 0.0000
6.5717, 0.5464, 0.0000
6.6040, 0.5411, 0.0000
6.6363, 0.5358, 0.0000
6.6687, 0.5305, 0.0000
6.7012, 0.5252, 0.0000
6.7338, 0.5198, 0.0000
6.7664, 0.5144, 0.0000
6.7992, 0.5090, 0.0000
6.8320, 0.5036, 0.0000
6.8649, 0.4982, 0.0000
6.8978, 0.4927, 0.0000
6.9309, 0.4873, 0.0000
6.9640, 0.4818, 0.0000
6.9972, 0.4762, 0.0000
7.0305, 0.4707, 0.0000
7.0638, 0.4652, 0.0000
7.0973, 0.4596, 0.0000
7.1308, 0.4540, 0.0000
7.1644, 0.4484, 0.0000
7.1981, 0.4428, 0.0000
7.2318, 0.4371, 0.0000
7.2656, 0.4315, 0.0000
7.2996, 0.4258, 0.0000
7.3336, 0.4201, 0.0000
7.3676, 0.4144, 0.0000
7.4018, 0.4086, 0.0000
7.4360, 0.4029, 0.0000
7.4703, 0.3971, 0.0000
7.5047, 0.3914, 0.0000
7.5392, 0.3856, 0.0000
7.5737, 0.3798, 0.0000
7.6083, 0.3740, 0.0000
7.6430, 0.3681, 0.0000
7.6778, 0.3623, 0.0000
7.7127, 0.3564, 0.0000
7.7476, 0.3505, 0.0000
7.7826, 0.3446, 0.0000
7.8177, 0.3387, 0.0000
7.8529, 0.3328, 0.0000
7.8881, 0.3269, 0.0000
7.9235, 0.3209, 0.0000
7.9589, 0.3150, 0.0000
7.9944, 0.3090, 0.0000
8.0299, 0.3030, 0.0000
8.0656, 0.2970, 0.0000
8.1013, 0.2910, 0.0000
8.1371, 0.2850, 0.0000
8.1730, 0.2790, 0.0000
8.2090, 0.2730, 0.0000
8.2450, 0.2669, 0.0000
8.2812, 0.2608, 0.0000
8.3174, 0.2548, 0.0000
8.3536, 0.2487, 0.0000
8.3900, 0.2426, 0.0000
8.4264, 0.2365, 0.0000
8.4629, 0.2304, 0.0000
8.4995, 0.2243, 0.0000
8.5362, 0.2181, 0.0000
8.5730, 0.2120, 0.0000
8.6098, 0.2059, 0.0000
8.6467, 0.1997, 0.0000
8.6837, 0.1935, 0.0000
8.7208, 0.1874, 0.0000
8.7579, 0.1812, 0.0000
8.7952, 0.1750, 0.0000
8.8325, 0.1688, 0.0000
8.8699, 0.1626, 0.0000
8.9073, 0.1564, 0.0000
8.9449, 0.1502, 0.0000
8.9825, 0.1440, 0.0000
9.0202, 0.1378, 0.0000
9.0580, 0.1316, 0.0000
9.0958, 0.1253, 0.0000
9.1338, 0.1191, 0.0000
9.1718, 0.1129, 0.0000
9.2099, 0.1066, 0.0000
9.2481, 0.1004, 0.0000
9.2863, 0.0941, 0.0000
9.3246, 0.0879, 0.0000
9.3631, 0.0816, 0.0000
9.4015, 0.0753, 0.0000
9.4401, 0.0691, 0.0000
9.4788, 0.0628, 0.0000
9.5175, 0.0565, 0.0000
9.5563, 0.0502, 0.0000
9.5952, 0.0440, 0.0000
9.6342, 0.0377, 0.0000
9.6732, 0.0314, 0.0000
9.7123, 0.0251, 0.0000
9.7515, 0.0188, 0.0000
9.7908, 0.0126, 0.0000
9.8302, 0.0063, 0.0000
9.8696, 0.0000, 0.0000
9.9091, -0.0063, 0.0000
9.9487, -0.0126, 0.0000
9.9884, -0.0188, 0.0000
10.0281, -0.0251, 0.0000
10.0680, -0.0314, 0.0000
10.1079, -0.0377, 0.0000
10.1479, -0.0440, 0.0000
10.1880, -0.0502, 0.0000
10.2281, -0.0565, 0.0000
10.2683, -0.0628, 0.0000
10.3086, -0.0691, 0.0000
10.3490, -0.0753, 0.0000
10.3895, -0.0816, 0.0000
10.4300, -0.0879, 0.0000
10.4707, -0.0941, 0.0000
10.5114, -0.1004, 0.0000
10.5521, -0.1066, 0.0000
10.5930, -0.1129, 0.0000
10.6339, -0.1191, 0.0000
10.6750, -0.1253, 0.0000
10.7161, -0.1316, 0.0000
10.7572, -0.1378, 0.0000
10.7985, -0.1440, 0.0000
10.8398, -0.1502, 0.0000
10.8812, -0.1564, 0.0000
10.9227, -0.1626, 0.0000
10.9643, -0.1688, 0.0000
11.0060, -0.1750, 0.0000
11.0477, -0.1812, 0.0000
11.0895, -0.1874, 0.0000
11.1314, -0.1935, 0.0000
11.1733, -0.1997, 0.0000
11.2154, -0.2059, 0.0000
11.2575, -0.2120, 0.0000
11.2997, -0.2181, 0.0000
11.3420, -0.2243, 0.0000
11.3844, -0.2304, 0.0000
11.4268, -0.2365, 0.0000
11.4693, -0.2426, 0.0000
11.5119, -0.2487, 0.0000
11.5546, -0.2548, 0.0000
11.5973, -0.2608, 0.0000
11.6402, -0.2669, 0.0000
11.6831, -0.2730, 0.0000
11.7261, -0.2790, 0.0000
11.7691, -0.2850, 0.0000
11.8123, -0.2910, 0.0000
11.8555, -0.2970, 0.0000
11.8988, -0.3030, 0.0000
11.9422, -0.3090, 0.0000
11.9857, -0.3150, 0.0000
12.0292, -0.3209, 0.0000
12.0729, -0.3269, 0.0000
12.1166, -0.3328, 0.0000
12.1603, -0.3387, 0.0000
12.2042, -0.3446, 0.0000
12.2481, -0.3505, 0.0000
12.2922, -0.3564, 0.0000
12.3363, -0.3623, 0.0000
12.3804, -0.3681, 0.0000
12.4247, -0.3740, 0.0000
12.4690, -0.3798, 0.0000
12.5134, -0.3856, 0.0000
12.5579, -0.3914, 0.0000
12.6025, -0.3971, 0.0000
12.6471, -0.4029, 0.0000
12.6919, -0.4086, 0.0000
12.7367, -0.4144, 0.0000
12.7816, -0.4201, 0.0000
12.8265, -0.4258, 0.0000
12.8716, -0.4315, 0.0000
12.9167, -0.4371, 0.0000
12.9619, -0.4428, 0.0000
13.0072, -0.4484, 0.0000
13.0526, -0.4540, 0.0000
13.0980, -0.4596, 0.0000
13.1435, -0.4652, 0.0000
13.1891, -0.4707, 0.0000
13.2348, -0.4762, 0.0000
13.2805, -0.4818, 0.0000
13.3264, -0.4873, 0.0000
13.3723, -0.4927, 0.0000
13.4183, -0.4982, 0.0000
13.4644, -0.5036, 0.0000
13.5105, -0.5090, 0.0000
13.5567, -0.5144, 0.0000
13.6030, -0.5198, 0.0000
13.6494, -0.5252, 0.0000
13.6959, -0.5305, 0.0000
13.7424, -0.5358, 0.0000
13.7891, -0.5411, 0.0000
13.8358, -0.5464, 0.0000
13.8825, -0.5516, 0.0000
13.9294, -0.5569, 0.0000
13.9763, -0.5621, 0.0000
14.0234, -0.5673, 0.0000
14.0705, -0.5724, 0.0000
14.1176, -0.5776, 0.0000
14.1649, -0.5827, 0.0000
14.2122, -0.5878, 0.0000
14.2596, -0.5929, 0.0000
14.3071, -0.5979, 0.0000
14.3547, -0.6029, 0.0000
14.4024, -0.6079, 0.0000
14.4501, -0.6129, 0.0000
14.4979, -0.6179, 0.0000
14.5458, -0.6228, 0.0000
14.5937, -0.6277, 0.0000
14.6418, -0.6326, 0.0000
14.6899, -0.6374, 0.0000
14.7381, -0.6423, 0.0000
14.7864, -0.6471, 0.0000
14.8348, -0.6518, 0.0000
14.8832, -0.6566, 0.0000
14.9317, -0.6613, 0.0000
14.9803, -0.6660, 0.0000
15.0290, -0.6707, 0.0000
15.0778, -0.6753, 0.0000
15.1266, -0.6800, 0.0000
15.1755, -0.6845, 0.0000
15.2245, -0.6891, 0.0000
15.2736, -0.6937, 0.0000
15.3227, -0.6982, 0.0000
15.3719, -0.7026, 0.0000
15.4213, -0.7071, 0.0000
15.4706, -0.7115, 0.0000
15.5201, -0.7159, 0.0000
15.5697, -0.7203, 0.0000
15.6193, -0.7247, 0.0000
15.6690, -0.7290, 0.0000
15.7188, -0.7333, 0.0000
15.7686, -0.7375, 0.0000
15.8186, -0.7417, 0.0000
15.8686, -0.7459, 0.0000
15.9187, -0.7501, 0.0000
15.9689, -0.7543, 0.0000
16.0191, -0.7584, 0.0000
16.0695, -0.7624, 0.0000
16.1199, -0.7665, 0.0000
16.1704, -0.7705, 0.0000
16.2209, -0.7745, 0.0000
16.2716, -0.7785, 0.0000
16.3223, -0.7824, 0.0000
16.3731, -0.7863, 0.0000
16.4240, -0.7902, 0.0000
16.4750, -0.7940, 0.0000
16.5260, -0.7978, 0.0000
16.5771, -0.8016, 0.0000
16.6283, -0.8053, 0.0000
16.6796, -0.8090, 0.0000
16.7310, -0.8127, 0.0000
16.7824, -0.8163, 0.0000
16.8340, -0.8200, 0.0000
16.8856, -0.8235, 0.0000
16.9372, -0.8271, 0.0000
16.9890, -0.8306, 0.0000
17.0408, -0.8341, 0.0000
17.0927, -0.8375, 0.0000
17.1447, -0.8409, 0.0000
17.1968, -0.8443, 0.0000
17.2489, -0.8477, 0.0000
17.3012, -0.8510, 0.0000
17.3535, -0.8543, 0.0000
17.4059, -0.8575, 0.0000
17.4583, -0.8607, 0.0000
17.5109, -0.8639, 0.0000
17.5635, -0.8671, 0.0000
17.6162, -0.8702, 0.0000
17.6690, -0.8733, 0.0000
17.7219, -0.8763, 0.0000
17.7748, -0.8793, 0.0000
17.8278, -0.8823, 0.0000
17.8809, -0.8852, 0.0000
17.9341, -0.8881, 0.0000
17.9874, -0.8910, 0.0000
18.0407, -0.8938, 0.0000
18.0941, -0.8966, 0.0000
18.1476, -0.8994, 0.0000
18.2012, -0.9021, 0.0000
18.2548, -0.9048, 0.0000
18.3086, -0.9075, 0.0000
18.3624, -0.9101, 0.0000
18.4162, -0.9127, 0.0000
18.4702, -0.9152, 0.0000
18.5243, -0.9178, 0.0000
18.5784, -0.9202, 0.0000
18.6326, -0.9227, 0.0000
18.6869, -0.9251, 0.0000
18.7412, -0.9274, 0.0000
18.7957, -0.9298, 0.0000
18.8502, -0.9321, 0.0000
18.9048, -0.9343, 0.0000
18.9595, -0.9365, 0.0000
19.0142, -0.9387, 0.0000
19.0691, -0.9409, 0.0000
19.1240, -0.9430, 0.0000
19.1790, -0.9451, 0.0000
19.2340, -0.9471, 0.0000
19.2892, -0.9491, 0.0000
19.3444, -0.9511, 0.0000
19.3997, -0.9530, 0.0000
19.4551, -0.9549, 0.0000
19.5106, -0.9567, 0.0000
19.5661, -0.9585, 0.0000
19.6218, -0.9603, 0.0000
19.6775, -0.9620, 0.0000
19.7332, -0.9637, 0.0000
19.7891, -0.9654, 0.0000
19.8451, -0.9670, 0.0000
19.9011, -0.9686, 0.0000
19.9572, -0.9701, 0.0000
20.0133, -0.9716, 0.0000
20.0696, -0.9731, 0.0000
20.1259, -0.9745, 0.0000
20.1824, -0.9759, 0.0000
20.2388, -0.9773, 0.0000
20.2954, -0.9786, 0.0000
20.3521, -0.9799, 0.0000
20.4088, -0.9811, 0.0000
20.4656, -0.9823, 0.0000
20.5225, -0.9834, 0.0000
20.5795, -0.9846, 0.0000
20.6365, -0.9856, 0.0000
20.6936, -0.9867, 0.0000
20.7508, -0.9877, 0.0000
20.8081, -0.9887, 0.0000
20.8655, -0.9896, 0.0000
20.9229, -0.9905, 0.0000
20.9804, -0.9913, 0.0000
21.0380, -0.9921, 0.0000
21.0957, -0.9929, 0.0000
21.1535, -0.9936, 0.0000
21.2113, -0.9943, 0.0000
21.2692, -0.9950, 0.0000
21.3272, -0.9956, 0.0000
21.3853, -0.9961, 0.0000
21.4435, -0.9967, 0.0000
21.5017, -0.9972, 0.0000
21.5600, -0.9976, 0.0000
21.6184, -0.9980, 0.0000
21.6768, -0.9984, 0.0000
21.7354, -0.9987, 0.0000
21.7940, -0.9990, 0.0000
21.8527, -0.9993, 0.0000
21.9115, -0.9995, 0.0000
21.9704, -0.9997, 0.0000
22.0293, -0.9998, 0.0000
22.0883, -0.9999, 0.0000
22.1474, -1.0000, 0.0000
22.2066, -1.0000, 0.0000
22.2659, -1.0000, 0.0000
22.3252, -0.9999, 0.0000
22.3846, -0.9998, 0.0000
22.4441, -0.9997, 0.0000
22.5037, -0.9995, 0.0000
22.5633, -0.9993, 0.0000
22.6231, -0.9990, 0.0000
22.6829, -0.9987, 0.0000
22.7428, -0.9984, 0.0000
22.8027, -0.9980, 0.0000
22.8628, -0.9976, 0.0000
22.9229, -0.9972, 0.0000
22.9831, -0.9967, 0.0000
23.0434, -0.9961, 0.0000
23.1038, -0.9956, 0.0000
23.1642, -0.9950, 0.0000
23.2247, -0.9943, 0.0000
23.2853, -0.9936, 0.0000
23.3460, -0.9929, 0.0000
23.4068, -0.9921, 0.0000
23.4676, -0.9913, 0.0000
23.5285, -0.9905, 0.0000
23.5895, -0.9896, 0.0000
23.6506, -0.9887, 0.0000
23.7117, -0.9877, 0.0000
23.7730, -0.9867, 0.0000
23.8343, -0.9856, 0.0000
23.8957, -0.9846, 0.0000
23.9571, -0.9834, 0.0000
24.0187, -0.9823, 0.0000
24.0803, -0.9811, 0.0000
24.1420, -0.9799, 0.0000
24.2038, -0.9786, 0.0000
24.2656, -0.9773, 0.0000
24.3276, -0.9759, 0.0000
24.3896, -0.9745, 0.0000
24.4517, -0.9731, 0.0000
24.5139, -0.9716, 0.0000
24.5761, -0.9701, 0.0000
24.6385, -0.9686, 0.0000
24.7009, -0.9670, 0.0000
24.7634, -0.9654, 0.0000
24.8260, -0.9637, 0.0000
24.8886, -0.9620, 0.0000
24.9513, -0.9603, 0.0000
25.0142, -0.9585, 0.0000
25.0770, -0.9567, 0.0000
25.1400, -0.9549, 0.0000
25.2031, -0.9530, 0.0000
25.2662, -0.9511, 0.0000
25.3294, -0.9491, 0.0000
25.3927, -0.9471, 0.0000
25.4560, -0.9451, 0.0000
25.5195, -0.9430, 0.0000
25.5830, -0.9409, 0.0000
25.6466, -0.9387, 0.0000
25.7103, -0.9365, 0.0000
25.7740, -0.9343, 0.0000
25.8379, -0.9321, 0.0000
25.9018, -0.9298, 0.0000
25.9658, -0.9274, 0.0000
26.0299, -0.9251, 0.0000
26.0940, -0.9227, 0.0000
26.1582, -0.9202, 0.0000
26.2226, -0.9178, 0.0000
26.2869, -0.9152, 0.0000
26.3514, -0.9127, 0.0000
26.4160, -0.9101, 0.0000
26.4806, -0.9075, 0.0000
26.5453, -0.9048, 0.0000
26.6101, -0.9021, 0.0000
26.6749, -0.8994, 0.0000
26.7399, -0.8966, 0.0000
26.8049, -0.8938, 0.0000
26.8700, -0.8910, 0.0000
26.9352, -0.8881, 0.0000
27.0004, -0.8852, 0.0000
27.0658, -0.8823, 0.0000
27.1312, -0.8793, 0.0000
27.1967, -0.8763, 0.0000
27.2623, -0.8733, 0.0000
27.3279, -0.8702, 0.0000
27.3936, -0.8671, 0.0000
27.4595, -0.8639, 0.0000
27.5253, -0.8607, 0.0000
27.5913, -0.8575, 0.0000
27.6574, -0.8543, 0.0000
27.7235, -0.8510, 0.0000
27.7897, -0.8477, 0.0000
27.8560, -0.8443, 0.0000
27.9223, -0.8409, 0.0000
27.9888, -0.8375, 0.0000
28.0553, -0.8341, 0.0000
28.1219, -0.8306, 0.0000
28.1886, -0.8271, 0.0000
28.2553, -0.8235, 0.0000
28.3222, -0.8200, 0.0000
28.3891, -0.8163, 0.0000
28.4561, -0.8127, 0.0000
28.5232, -0.8090, 0.0000
28.5903, -0.8053, 0.0000
28.6575, -0.8016, 0.0000
28.7249, -0.7978, 0.0000
28.7922, -0.7940, 0.0000
28.8597, -0.7902, 0.0000
28.9273, -0.7863, 0.0000
28.9949, -0.7824, 0.0000
29.0626, -0.7785, 0.0000
29.1304, -0.7745, 0.0000
29.1982, -0.7705, 0.0000
29.2662, -0.7665, 0.0000
29.3342, -0.7624, 0.0000
29.4023, -0.7584, 0.0000
29.4705, -0.7543, 0.0000
29.5387, -0.7501, 0.0000
29.6071, -0.7459, 0.0000
29.6755, -0.7417, 0.0000
29.7440, -0.7375, 0.0000
29.8126, -0.7333, 0.0000
29.8812, -0.7290, 0.0000
29.9499, -0.7247, 0.0000
30.0188, -0.7203, 0.0000
30.0876, -0.7159, 0.0000
30.1566, -0.7115, 0.0000
30.2257, -0.7071, 0.0000
30.2948, -0.7026, 0.0000
30.3640, -0.6982, 0.0000
30.4333, -0.6937, 0.0000
30.5026, -0.6891, 0.0000
30.5721, -0.6845, 0.0000
30.6416, -0.6800, 0.0000
30.7112, -0.6753, 0.0000
30.7809, -0.6707, 0.0000
30.8506, -0.6660, 0.0000
30.9205, -0.6613, 0.0000
30.9904, -0.6566, 0.0000
31.0604, -0.6518, 0.0000
31.1305, -0.6471, 0.0000
31.2006, -0.6423, 0.0000
31.2709, -0.6374, 0.0000
31.3412, -0.6326, 0.0000
31.4116, -0.6277, 0.0000
31.4820, -0.6228, 0.0000
31.5526, -0.6179, 0.0000
31.6232, -0.6129, 0.0000
31.6939, -0.6079, 0.0000
31.7647, -0.6029, 0.0000
31.8356, -0.5979, 0.0000
31.9065, -0.5929, 0.0000
31.9775, -0.5878, 0.0000
32.0486, -0.5827, 0.0000
32.1198, -0.5776, 0.0000
32.1911, -0.5724, 0.0000
32.2624, -0.5673, 0.0000
32.3338, -0.5621, 0.0000
32.4053, -0.5569, 0.0000
32.4769, -0.5516, 0.0000
32.5485, -0.5464, 0.0000
32.6203, -0.5411, 0.0000
32.6921, -0.5358, 0.0000
32.7640, -0.5305, 0.0000
32.8359, -0.5252, 0.0000
32.9080, -0.5198, 0.0000
32.9801, -0.5144, 0.0000
33.0523, -0.5090, 0.0000
33.1246, -0.5036, 0.0000
33.1970, -0.4982, 0.0000
33.2694, -0.4927, 0.0000
33.3419, -0.4873, 0.0000
33.4145, -0.4818, 0.0000
33.4872, -0.4762, 0.0000
33.5600, -0.4707, 0.0000
33.6328, -0.4652, 0.0000
33.7057, -0.4596, 0.0000
33.7787, -0.4540, 0.0000
33.8518, -0.4484, 0.0000
33.9249, -0.4428, 0.0000
33.9982, -0.4371, 0.0000
34.0715, -0.4315, 0.0000
34.1449, -0.4258, 0.0000
34.2184, -0.4201, 0.0000
34.2919, -0.4144, 0.0000
34.3655, -0.4086, 0.0000
34.4392, -0.4029, 0.0000
34.5130, -0.3971, 0.0000
34.5869, -0.3914, 0.0000
34.6608, -0.3856, 0.0000
34.7348, -0.3798, 0.0000
34.8089, -0.3740, 0.0000
34.8831, -0.3681, 0.0000
34.9574, -0.3623, 0.0000
35.0317, -0.3564, 0.0000
35.1061, -0.3505, 0.0000
35.1806, -0.3446, 0.0000
35.2552, -0.3387, 0.0000
35.3299, -0.3328, 0.0000
35.4046, -0.3269, 0.0000
35.4794, -0.3209, 0.0000
35.5543, -0.3150, 0.0000
35.6293, -0.3090, 0.0000
35.7043, -0.3030, 0.0000
35.7794, -0.2970, 0.0000
35.8547, -0.2910, 0.0000
35.9299, -0.2850, 0.0000
36.0053, -0.2790, 0.0000
36.0807, -0.2730, 0.0000
36.1563, -0.2669, 0.0000
36.2319, -0.2608, 0.0000
36.3076, -0.2548, 0.0000
36.3833, -0.2487, 0.0000
36.4591, -0.2426, 0.0000
36.5351, -0.2365, 0.0000
36.6111, -0.2304, 0.0000
36.6871, -0.2243, 0.0000
36.7633, -0.2181, 0.0000
36.8395, -0.2120, 0.0000
36.9158, -0.2059, 0.0000
36.9922, -0.1997, 0.0000
37.0687, -0.1935, 0.0000
37.1452, -0.1874, 0.0000
37.2219, -0.1812, 0.0000
37.2986, -0.1750, 0.0000
37.3754, -0.1688, 0.0000
37.4522, -0.1626, 0.0000
37.5292, -0.1564, 0.0000
37.6062, -0.1502, 0.0000
37.6833, -0.1440, 0.0000
37.7605, -0.1378, 0.0000
37.8377, -0.1316, 0.0000
37.9151, -0.1253, 0.0000
37.9925, -0.1191, 0.0000
38.0700, -0.1129, 0.0000
38.1476, -0.1066, 0.0000
38.2252, -0.1004, 0.0000
38.3029, -0.0941, 0.0000
38.3808, -0.0879, 0.0000
38.4587, -0.0816, 0.0000
38.5366, -0.0753, 0.0000
38.6147, -0.0691, 0.0000
38.6928, -0.0628, 0.0000
38.7710, -0.0565, 0.0000
38.8493, -0.0502, 0.0000
38.9277, -0.0440, 0.0000
39.0061, -0.0377, 0.0000
39.0846, -0.0314, 0.0000
39.1632, -0.0251, 0.0000
39.2419, -0.0188, 0.0000
39.3207, -0.0126, 0.0000
39.3995, -0.0063, 0.0000
