-0.8528, 0.0000, 0.0000
-0.8490, 0.0053, 0.0000
-1.0503, 0.0132, 0.0000
-0.9233, 0.0174, 0.0000
-1.1123, 0.0280, 0.0000
-0.8601, 0.0270, 0.0000
-0.8553, 0.0323, 0.0000
-0.8793, 0.0387, 0.0000
-1.0994, 0.0553, 0.0000
-0.9207, 0.0521, 0.0000
-1.1421, 0.0719, 0.0000
-1.1592, 0.0802, 0.0000
-1.1865, 0.0896, 0.0000
-1.0003, 0.0819, 0.0000
-1.0791, 0.0952, 0.0000
-0.8166, 0.0772, 0.0000
-1.1340, 0.1144, 0.0000
-1.1053, 0.1185, 0.0000
-1.1631, 0.1321, 0.0000
-1.0285, 0.1234, 0.0000
-1.1853, 0.1497, 0.0000
-0.9116, 0.1210, 0.0000
-1.0134, 0.1410, 0.0000
-1.1338, 0.1650, 0.0000
-0.9628, 0.1463, 0.0000
-0.8764, 0.1388, 0.0000
-0.9275, 0.1529, 0.0000
-0.8385, 0.1436, 0.0000
-0.8168, 0.1452, 0.0000
-0.9820, 0.1809, 0.0000
-0.9058, 0.1728, 0.0000
-1.1020, 0.2174, 0.0000
-0.9952, 0.2028, 0.0000
-1.0685, 0.2248, 0.0000
-0.8163, 0.1771, 0.0000
-1.1589, 0.2590, 0.0000
-0.9812, 0.2258, 0.0000
-1.0889, 0.2578, 0.0000
-0.9142, 0.2225, 0.0000
-0.9532, 0.2384, 0.0000
-1.0611, 0.2725, 0.0000
-0.9702, 0.2556, 0.0000
-0.9536, 0.2577, 0.0000
-1.0353, 0.2867, 0.0000
-0.8944, 0.2538, 0.0000
-0.9420, 0.2737, 0.0000
-1.1062, 0.3289, 0.0000
-0.7911, 0.2407, 0.0000
-1.0744, 0.3342, 0.0000
-0.9458, 0.3007, 0.0000
-0.9838, 0.3197, 0.0000
-0.8795, 0.2919, 0.0000
-0.9610, 0.3257, 0.0000
-1.1138, 0.3852, 0.0000
-0.9328, 0.3292, 0.0000
-1.0404, 0.3746, 0.0000
-1.1187, 0.4107, 0.0000
-0.8358, 0.3128, 0.0000
-0.8787, 0.3352, 0.0000
-0.8316, 0.3232, 0.0000
-0.8234, 0.3260, 0.0000
-0.9965, 0.4018, 0.0000
-0.8927, 0.3665, 0.0000
-0.8654, 0.3616, 0.0000
-1.0351, 0.4402, 0.0000
-0.9216, 0.3988, 0.0000
-0.8490, 0.3737, 0.0000
-0.8432, 0.3775, 0.0000
-0.7370, 0.3355, 0.0000
-1.0871, 0.5033, 0.0000
-1.0085, 0.4746, 0.0000
-0.9019, 0.4314, 0.0000
-1.0071, 0.4894, 0.0000
-0.7819, 0.3861, 0.0000
-1.0711, 0.5373, 0.0000
-0.8554, 0.4358, 0.0000
-0.8056, 0.4169, 0.0000
-0.7295, 0.3833, 0.0000
-1.0423, 0.5561, 0.0000
-0.8548, 0.4629, 0.0000
-0.8273, 0.4548, 0.0000
-0.9499, 0.5300, 0.0000
-0.9598, 0.5435, 0.0000
-0.8550, 0.4913, 0.0000
-0.7128, 0.4155, 0.0000
-0.8852, 0.5235, 0.0000
-0.9818, 0.5890, 0.0000
-0.7388, 0.4495, 0.0000
-0.7341, 0.4530, 0.0000
-0.6942, 0.4344, 0.0000
-0.8530, 0.5414, 0.0000
-0.9687, 0.6234, 0.0000
-0.7145, 0.4661, 0.0000
-0.7315, 0.4838, 0.0000
-0.8635, 0.5789, 0.0000
-0.8450, 0.5743, 0.0000
-0.8100, 0.5580, 0.0000
-0.9081, 0.6340, 0.0000
-0.8565, 0.6060, 0.0000
-0.7959, 0.5707, 0.0000
-0.7043, 0.5117, 0.0000
-0.9327, 0.6866, 0.0000
-0.7942, 0.5924, 0.0000
-0.7041, 0.5321, 0.0000
-0.8406, 0.6436, 0.0000
-0.8828, 0.6848, 0.0000
-0.7450, 0.5854, 0.0000
-0.6588, 0.5244, 0.0000
-0.8597, 0.6932, 0.0000
-0.6978, 0.5699, 0.0000
-0.6824, 0.5646, 0.0000
-0.6530, 0.5472, 0.0000
-0.7893, 0.6699, 0.0000
-0.6789, 0.5835, 0.0000
-0.6331, 0.5511, 0.0000
-0.8730, 0.7697, 0.0000
-0.7922, 0.7074, 0.0000
-0.6351, 0.5742, 0.0000
-0.6167, 0.5647, 0.0000
-0.5881, 0.5453, 0.0000
-0.6908, 0.6487, 0.0000
-0.7041, 0.6696, 0.0000
-0.8315, 0.8007, 0.0000
-0.6250, 0.6095, 0.0000
-0.7607, 0.7512, 0.0000
-0.5691, 0.5691, 0.0000
-0.7359, 0.7452, 0.0000
-0.5704, 0.5849, 0.0000
-0.6992, 0.7261, 0.0000
-0.5682, 0.5975, 0.0000
-0.6809, 0.7251, 0.0000
-0.6494, 0.7003, 0.0000
-0.5894, 0.6437, 0.0000
-0.6259, 0.6922, 0.0000
-0.6162, 0.6901, 0.0000
-0.5856, 0.6642, 0.0000
-0.7666, 0.8806, 0.0000
-0.5866, 0.6825, 0.0000
-0.7568, 0.8917, 0.0000
-0.7208, 0.8602, 0.0000
-0.7064, 0.8538, 0.0000
-0.7456, 0.9129, 0.0000
-0.7027, 0.8715, 0.0000
-0.4987, 0.6264, 0.0000
-0.5041, 0.6415, 0.0000
-0.7014, 0.9042, 0.0000
-0.5995, 0.7830, 0.0000
-0.5790, 0.7662, 0.0000
-0.6330, 0.8486, 0.0000
-0.7079, 0.9616, 0.0000
-0.5335, 0.7343, 0.0000
-0.4988, 0.6957, 0.0000
-0.5787, 0.8179, 0.0000
-0.5269, 0.7548, 0.0000
-0.5475, 0.7948, 0.0000
-0.5141, 0.7565, 0.0000
-0.4459, 0.6651, 0.0000
-0.5578, 0.8434, 0.0000
-0.4621, 0.7084, 0.0000
-0.5746, 0.8929, 0.0000
-0.4787, 0.7544, 0.0000
-0.5380, 0.8597, 0.0000
-0.4448, 0.7208, 0.0000
-0.6182, 1.0159, 0.0000
-0.4287, 0.7147, 0.0000
-0.5819, 0.9839, 0.0000
-0.5856, 1.0045, 0.0000
-0.4723, 0.8220, 0.0000
-0.5324, 0.9402, 0.0000
-0.5596, 1.0029, 0.0000
-0.4740, 0.8622, 0.0000
-0.4198, 0.7751, 0.0000
-0.5083, 0.9528, 0.0000
-0.5369, 1.0218, 0.0000
-0.3871, 0.7480, 0.0000
-0.5203, 1.0212, 0.0000
-0.5133, 1.0233, 0.0000
-0.4650, 0.9416, 0.0000
-0.5170, 1.0638, 0.0000
-0.4391, 0.9180, 0.0000
-0.3688, 0.7838, 0.0000
-0.4100, 0.8857, 0.0000
-0.3997, 0.8779, 0.0000
-0.4812, 1.0748, 0.0000
-0.3464, 0.7868, 0.0000
-0.3472, 0.8023, 0.0000
-0.3663, 0.8612, 0.0000
-0.4297, 1.0282, 0.0000
-0.3919, 0.9545, 0.0000
-0.4374, 1.0849, 0.0000
-0.3701, 0.9347, 0.0000
-0.3820, 0.9827, 0.0000
-0.3520, 0.9228, 0.0000
-0.3880, 1.0366, 0.0000
-0.3854, 1.0498, 0.0000
-0.3187, 0.8853, 0.0000
-0.3056, 0.8659, 0.0000
-0.2958, 0.8551, 0.0000
-0.3292, 0.9715, 0.0000
-0.3688, 1.1113, 0.0000
-0.2526, 0.7773, 0.0000
-0.3272, 1.0290, 0.0000
-0.3044, 0.9786, 0.0000
-0.2709, 0.8906, 0.0000
-0.2717, 0.9138, 0.0000
-0.2624, 0.9031, 0.0000
-0.2895, 1.0202, 0.0000
-0.2934, 1.0594, 0.0000
-0.2960, 1.0954, 0.0000
-0.2413, 0.9157, 0.0000
-0.2812, 1.0953, 0.0000
-0.2429, 0.9712, 0.0000
-0.2484, 1.0206, 0.0000
-0.2322, 0.9807, 0.0000
-0.2610, 1.1342, 0.0000
-0.2388, 1.0682, 0.0000
-0.2128, 0.9808, 0.0000
-0.2129, 1.0120, 0.0000
-0.2152, 1.0556, 0.0000
-0.2126, 1.0776, 0.0000
-0.1555, 0.8150, 0.0000
-0.1731, 0.9397, 0.0000
-0.1408, 0.7920, 0.0000
-0.1701, 0.9931, 0.0000
-0.1328, 0.8058, 0.0000
-0.1745, 1.1015, 0.0000
-0.1801, 1.1850, 0.0000
-0.1353, 0.9299, 0.0000
-0.1358, 0.9764, 0.0000
-0.1492, 1.1239, 0.0000
-0.1106, 0.8757, 0.0000
-0.1015, 0.8463, 0.0000
-0.1128, 0.9929, 0.0000
-0.1141, 1.0640, 0.0000
-0.0875, 0.8674, 0.0000
-0.1119, 1.1837, 0.0000
-0.1049, 1.1895, 0.0000
-0.0772, 0.9431, 0.0000
-0.0671, 0.8879, 0.0000
-0.0666, 0.9626, 0.0000
-0.0521, 0.8285, 0.0000
-0.0575, 1.0151, 0.0000
-0.0581, 1.1545, 0.0000
-0.0410, 0.9319, 0.0000
-0.0323, 0.8565, 0.0000
-0.0298, 0.9487, 0.0000
-0.0234, 0.9298, 0.0000
-0.0156, 0.8256, 0.0000
-0.0146, 1.1622, 0.0000
-0.0061, 0.9738, 0.0000
-0.0000, 0.8487, 0.0000
0.0051, 0.8081, 0.0000
0.0121, 0.9615, 0.0000
0.0179, 0.9501, 0.0000
0.0272, 1.0812, 0.0000
0.0274, 0.8714, 0.0000
0.0337, 0.8948, 0.0000
0.0434, 0.9854, 0.0000
0.0514, 1.0211, 0.0000
0.0614, 1.0849, 0.0000
0.0674, 1.0717, 0.0000
0.0714, 1.0318, 0.0000
0.0605, 0.8005, 0.0000
0.0654, 0.7990, 0.0000
0.0977, 1.1082, 0.0000
0.0999, 1.0568, 0.0000
0.1201, 1.1910, 0.0000
0.0863, 0.8050, 0.0000
0.0913, 0.8042, 0.0000
0.1248, 1.0408, 0.0000
0.1205, 0.9542, 0.0000
0.1101, 0.8293, 0.0000
0.1291, 0.9280, 0.0000
0.1540, 1.0585, 0.0000
0.1252, 0.8238, 0.0000
0.1530, 0.9662, 0.0000
0.1781, 1.0804, 0.0000
0.1626, 0.9495, 0.0000
0.1987, 1.1176, 0.0000
0.1993, 1.0817, 0.0000
0.1753, 0.9192, 0.0000
0.1618, 0.8199, 0.0000
0.1943, 0.9535, 0.0000
0.2208, 1.0497, 0.0000
0.1805, 0.8318, 0.0000
0.2295, 1.0266, 0.0000
0.2378, 1.0332, 0.0000
0.2209, 0.9332, 0.0000
0.2311, 0.9496, 0.0000
0.2140, 0.8556, 0.0000
0.2751, 1.0713, 0.0000
0.2256, 0.8563, 0.0000
0.2262, 0.8373, 0.0000
0.2240, 0.8088, 0.0000
0.2285, 0.8052, 0.0000
0.2575, 0.8864, 0.0000
0.2960, 0.9955, 0.0000
0.2425, 0.7973, 0.0000
0.2541, 0.8167, 0.0000
0.2595, 0.8160, 0.0000
0.3354, 1.0322, 0.0000
0.3456, 1.0413, 0.0000
0.2719, 0.8023, 0.0000
0.2741, 0.7926, 0.0000
0.3877, 1.0985, 0.0000
0.3743, 1.0396, 0.0000
0.3252, 0.8859, 0.0000
0.3903, 1.0429, 0.0000
0.4133, 1.0835, 0.0000
0.4033, 1.0375, 0.0000
0.3461, 0.8742, 0.0000
0.3358, 0.8327, 0.0000
0.4439, 1.0814, 0.0000
0.4310, 1.0313, 0.0000
0.3994, 0.9391, 0.0000
0.3392, 0.7838, 0.0000
0.3964, 0.9004, 0.0000
0.3518, 0.7856, 0.0000
0.3331, 0.7315, 0.0000
0.5022, 1.0848, 0.0000
0.3827, 0.8133, 0.0000
0.3528, 0.7376, 0.0000
0.4623, 0.9513, 0.0000
0.4851, 0.9824, 0.0000
0.4750, 0.9468, 0.0000
0.4042, 0.7933, 0.0000
0.4790, 0.9256, 0.0000
0.4144, 0.7886, 0.0000
0.4640, 0.8698, 0.0000
0.4870, 0.8991, 0.0000
0.5368, 0.9764, 0.0000
0.4976, 0.8918, 0.0000
0.5424, 0.9579, 0.0000
0.4358, 0.7584, 0.0000
0.5188, 0.8899, 0.0000
0.4297, 0.7266, 0.0000
0.5281, 0.8803, 0.0000
0.5980, 0.9827, 0.0000
0.5263, 0.8528, 0.0000
0.4480, 0.7159, 0.0000
0.5264, 0.8294, 0.0000
0.5198, 0.8077, 0.0000
0.4996, 0.7658, 0.0000
0.4561, 0.6896, 0.0000
0.4551, 0.6788, 0.0000
0.5101, 0.7506, 0.0000
0.6122, 0.8888, 0.0000
0.5821, 0.8338, 0.0000
0.5634, 0.7963, 0.0000
0.5337, 0.7443, 0.0000
0.5967, 0.8213, 0.0000
0.6807, 0.9246, 0.0000
0.6334, 0.8491, 0.0000
0.6251, 0.8271, 0.0000
0.7101, 0.9274, 0.0000
0.5065, 0.6530, 0.0000
0.6613, 0.8415, 0.0000
0.5325, 0.6690, 0.0000
0.6621, 0.8211, 0.0000
0.5292, 0.6479, 0.0000
0.7456, 0.9013, 0.0000
0.5916, 0.7060, 0.0000
0.7474, 0.8807, 0.0000
0.5497, 0.6396, 0.0000
0.5446, 0.6256, 0.0000
0.5988, 0.6792, 0.0000
0.6836, 0.7656, 0.0000
0.7345, 0.8123, 0.0000
0.6512, 0.7111, 0.0000
0.8093, 0.8728, 0.0000
0.6220, 0.6624, 0.0000
0.6422, 0.6753, 0.0000
0.6987, 0.7256, 0.0000
0.6502, 0.6667, 0.0000
0.6004, 0.6080, 0.0000
0.6011, 0.6011, 0.0000
0.8114, 0.8013, 0.0000
0.6687, 0.6521, 0.0000
0.7236, 0.6969, 0.0000
0.7757, 0.7376, 0.0000
0.8110, 0.7616, 0.0000
0.7889, 0.7316, 0.0000
0.7336, 0.6717, 0.0000
0.8533, 0.7716, 0.0000
0.6462, 0.5770, 0.0000
0.8707, 0.7677, 0.0000
0.7017, 0.6108, 0.0000
0.7794, 0.6699, 0.0000
0.7724, 0.6555, 0.0000
0.8495, 0.7118, 0.0000
0.8510, 0.7040, 0.0000
0.8920, 0.7286, 0.0000
0.9194, 0.7414, 0.0000
0.6704, 0.5336, 0.0000
0.8911, 0.7002, 0.0000
0.9326, 0.7234, 0.0000
0.6907, 0.5289, 0.0000
0.6531, 0.4936, 0.0000
0.8773, 0.6544, 0.0000
0.7531, 0.5544, 0.0000
0.8567, 0.6225, 0.0000
0.9038, 0.6480, 0.0000
0.9735, 0.6888, 0.0000
0.9234, 0.6446, 0.0000
0.7749, 0.5337, 0.0000
0.7648, 0.5197, 0.0000
0.7960, 0.5337, 0.0000
0.8808, 0.5826, 0.0000
0.8112, 0.5292, 0.0000
0.6864, 0.4417, 0.0000
0.9720, 0.6168, 0.0000
0.7920, 0.4957, 0.0000
0.9353, 0.5772, 0.0000
0.8159, 0.4965, 0.0000
0.8648, 0.5188, 0.0000
0.7684, 0.4545, 0.0000
0.7878, 0.4592, 0.0000
1.0247, 0.5887, 0.0000
0.9131, 0.5170, 0.0000
0.7313, 0.4081, 0.0000
0.7382, 0.4058, 0.0000
1.0229, 0.5540, 0.0000
0.7384, 0.3939, 0.0000
0.7843, 0.4121, 0.0000
0.7466, 0.3864, 0.0000
1.0676, 0.5440, 0.0000
0.7505, 0.3765, 0.0000
0.8034, 0.3967, 0.0000
0.9192, 0.4467, 0.0000
0.8327, 0.3982, 0.0000
1.0566, 0.4972, 0.0000
0.8207, 0.3799, 0.0000
0.8187, 0.3728, 0.0000
0.8688, 0.3890, 0.0000
0.7650, 0.3368, 0.0000
1.0515, 0.4550, 0.0000
1.0225, 0.4348, 0.0000
0.9385, 0.3922, 0.0000
0.7532, 0.3092, 0.0000
0.8803, 0.3550, 0.0000
0.9199, 0.3642, 0.0000
0.9032, 0.3511, 0.0000
0.9535, 0.3637, 0.0000
1.1169, 0.4180, 0.0000
0.8949, 0.3286, 0.0000
0.8112, 0.2921, 0.0000
1.0176, 0.3591, 0.0000
0.7934, 0.2744, 0.0000
0.8051, 0.2728, 0.0000
1.0620, 0.3525, 0.0000
0.9516, 0.3092, 0.0000
0.9510, 0.3024, 0.0000
0.9058, 0.2818, 0.0000
0.7939, 0.2415, 0.0000
1.1370, 0.3381, 0.0000
1.0588, 0.3076, 0.0000
1.1459, 0.3251, 0.0000
0.7878, 0.2182, 0.0000
0.7827, 0.2115, 0.0000
0.9717, 0.2560, 0.0000
1.0671, 0.2740, 0.0000
1.0002, 0.2501, 0.0000
0.9038, 0.2200, 0.0000
0.8630, 0.2043, 0.0000
0.8109, 0.1866, 0.0000
1.0964, 0.2451, 0.0000
0.8700, 0.1887, 0.0000
0.8773, 0.1846, 0.0000
1.0206, 0.2080, 0.0000
0.8112, 0.1600, 0.0000
0.9279, 0.1770, 0.0000
1.1582, 0.2134, 0.0000
0.9266, 0.1647, 0.0000
0.9595, 0.1643, 0.0000
0.9982, 0.1645, 0.0000
1.0515, 0.1665, 0.0000
1.1426, 0.1736, 0.0000
0.8797, 0.1280, 0.0000
0.9241, 0.1286, 0.0000
1.1105, 0.1474, 0.0000
0.8435, 0.1066, 0.0000
1.1168, 0.1340, 0.0000
1.0734, 0.1219, 0.0000
0.8193, 0.0878, 0.0000
0.8041, 0.0811, 0.0000
0.8530, 0.0806, 0.0000
0.9371, 0.0826, 0.0000
0.8518, 0.0697, 0.0000
0.9736, 0.0735, 0.0000
0.9902, 0.0685, 0.0000
1.0382, 0.0653, 0.0000
1.0863, 0.0615, 0.0000
0.8093, 0.0407, 0.0000
0.9008, 0.0396, 0.0000
0.8495, 0.0320, 0.0000
0.8591, 0.0270, 0.0000
1.1802, 0.0297, 0.0000
0.8380, 0.0158, 0.0000
0.8448, 0.0106, 0.0000
1.0554, 0.0066, 0.0000
0.9366, 0.0000, 0.0000
0.8569, -0.0054, 0.0000
1.0816, -0.0136, 0.0000
1.1633, -0.0219, 0.0000
0.9439, -0.0237, 0.0000
1.0285, -0.0323, 0.0000
1.1921, -0.0450, 0.0000
0.9758, -0.0429, 0.0000
0.9210, -0.0463, 0.0000
1.0161, -0.0575, 0.0000
1.0601, -0.0667, 0.0000
0.9540, -0.0660, 0.0000
1.1576, -0.0874, 0.0000
0.8893, -0.0728, 0.0000
0.9372, -0.0827, 0.0000
0.9585, -0.0906, 0.0000
1.1003, -0.1110, 0.0000
1.0375, -0.1112, 0.0000
0.8032, -0.0912, 0.0000
0.9884, -0.1186, 0.0000
1.1626, -0.1469, 0.0000
1.1587, -0.1538, 0.0000
0.8099, -0.1127, 0.0000
0.8222, -0.1196, 0.0000
0.7988, -0.1214, 0.0000
1.1805, -0.1870, 0.0000
0.9519, -0.1569, 0.0000
1.0373, -0.1777, 0.0000
1.1304, -0.2010, 0.0000
0.9707, -0.1789, 0.0000
1.0165, -0.1939, 0.0000
1.0862, -0.2143, 0.0000
0.9235, -0.1882, 0.0000
0.8862, -0.1864, 0.0000
1.0836, -0.2351, 0.0000
1.1328, -0.2532, 0.0000
1.1313, -0.2604, 0.0000
0.8566, -0.2028, 0.0000
1.0712, -0.2607, 0.0000
0.9973, -0.2494, 0.0000
0.8989, -0.2308, 0.0000
0.8438, -0.2223, 0.0000
1.0887, -0.2942, 0.0000
1.0003, -0.2770, 0.0000
0.8385, -0.2379, 0.0000
0.9161, -0.2662, 0.0000
0.9687, -0.2880, 0.0000
1.1309, -0.3440, 0.0000
1.1098, -0.3452, 0.0000
1.0651, -0.3387, 0.0000
1.0778, -0.3502, 0.0000
0.8478, -0.2814, 0.0000
0.8518, -0.2886, 0.0000
1.1059, -0.3825, 0.0000
0.8673, -0.3061, 0.0000
1.0597, -0.3815, 0.0000
1.1252, -0.4131, 0.0000
0.9146, -0.3423, 0.0000
0.9758, -0.3722, 0.0000
1.0193, -0.3962, 0.0000
0.9114, -0.3609, 0.0000
0.9674, -0.3901, 0.0000
0.9834, -0.4037, 0.0000
0.8877, -0.3710, 0.0000
1.0413, -0.4429, 0.0000
1.0644, -0.4606, 0.0000
1.0668, -0.4696, 0.0000
0.9641, -0.4316, 0.0000
1.0609, -0.4830, 0.0000
0.9104, -0.4214, 0.0000
0.9467, -0.4455, 0.0000
0.8366, -0.4001, 0.0000
1.0069, -0.4894, 0.0000
0.8011, -0.3956, 0.0000
0.8974, -0.4502, 0.0000
0.7800, -0.3974, 0.0000
0.7670, -0.3969, 0.0000
1.0020, -0.5265, 0.0000
0.8406, -0.4484, 0.0000
0.9619, -0.5210, 0.0000
0.9384, -0.5159, 0.0000
0.9942, -0.5547, 0.0000
0.8946, -0.5065, 0.0000
0.9051, -0.5201, 0.0000
0.7523, -0.4386, 0.0000
0.7114, -0.4207, 0.0000
0.9227, -0.5535, 0.0000
0.8551, -0.5203, 0.0000
0.7027, -0.4337, 0.0000
0.8486, -0.5311, 0.0000
0.7566, -0.4802, 0.0000
0.8997, -0.5789, 0.0000
0.7346, -0.4792, 0.0000
0.9122, -0.6033, 0.0000
0.8477, -0.5683, 0.0000
0.9563, -0.6499, 0.0000
0.9557, -0.6583, 0.0000
0.7553, -0.5273, 0.0000
0.7353, -0.5202, 0.0000
0.6797, -0.4873, 0.0000
0.9101, -0.6612, 0.0000
0.6488, -0.4776, 0.0000
0.8387, -0.6256, 0.0000
0.8423, -0.6365, 0.0000
0.8881, -0.6800, 0.0000
0.8066, -0.6257, 0.0000
0.7919, -0.6223, 0.0000
0.8831, -0.7030, 0.0000
0.8039, -0.6482, 0.0000
0.7714, -0.6300, 0.0000
0.7428, -0.6145, 0.0000
0.6283, -0.5265, 0.0000
0.8731, -0.7409, 0.0000
0.6611, -0.5682, 0.0000
0.7015, -0.6106, 0.0000
0.8378, -0.7386, 0.0000
0.8444, -0.7539, 0.0000
0.8341, -0.7542, 0.0000
0.5990, -0.5485, 0.0000
0.6344, -0.5882, 0.0000
0.8108, -0.7614, 0.0000
0.7363, -0.7002, 0.0000
0.7171, -0.6905, 0.0000
0.6842, -0.6672, 0.0000
0.6224, -0.6147, 0.0000
0.5727, -0.5727, 0.0000
0.8429, -0.8536, 0.0000
0.6667, -0.6837, 0.0000
0.7504, -0.7793, 0.0000
0.7154, -0.7523, 0.0000
0.6207, -0.6609, 0.0000
0.5585, -0.6023, 0.0000
0.7320, -0.7994, 0.0000
0.7873, -0.8707, 0.0000
0.5803, -0.6500, 0.0000
0.6805, -0.7718, 0.0000
0.7480, -0.8593, 0.0000
0.6042, -0.7030, 0.0000
0.5447, -0.6419, 0.0000
0.6481, -0.7735, 0.0000
0.5652, -0.6832, 0.0000
0.5775, -0.7071, 0.0000
0.6229, -0.7725, 0.0000
0.5614, -0.7053, 0.0000
0.7009, -0.8920, 0.0000
0.7005, -0.9031, 0.0000
0.6209, -0.8110, 0.0000
0.6633, -0.8777, 0.0000
0.5367, -0.7195, 0.0000
0.6684, -0.9080, 0.0000
0.6583, -0.9061, 0.0000
0.5274, -0.7356, 0.0000
0.5584, -0.7893, 0.0000
0.5578, -0.7990, 0.0000
0.5337, -0.7748, 0.0000
0.6143, -0.9039, 0.0000
0.6365, -0.9494, 0.0000
0.4987, -0.7540, 0.0000
0.5952, -0.9123, 0.0000
0.5452, -0.8472, 0.0000
0.5526, -0.8708, 0.0000
0.4815, -0.7694, 0.0000
0.5356, -0.8679, 0.0000
0.4968, -0.8165, 0.0000
0.5682, -0.9471, 0.0000
0.5613, -0.9491, 0.0000
0.5970, -1.0241, 0.0000
0.4466, -0.7773, 0.0000
0.5098, -0.9004, 0.0000
0.4613, -0.8267, 0.0000
0.5001, -0.9098, 0.0000
0.4582, -0.8460, 0.0000
0.5065, -0.9494, 0.0000
0.5099, -0.9703, 0.0000
0.4203, -0.8122, 0.0000
0.5302, -1.0405, 0.0000
0.4309, -0.8589, 0.0000
0.4329, -0.8767, 0.0000
0.3672, -0.7556, 0.0000
0.5151, -1.0770, 0.0000
0.3639, -0.7734, 0.0000
0.3855, -0.8328, 0.0000
0.3745, -0.8225, 0.0000
0.4197, -0.9374, 0.0000
0.4582, -1.0408, 0.0000
0.3524, -0.8143, 0.0000
0.3505, -0.8241, 0.0000
0.3202, -0.7662, 0.0000
0.4194, -1.0217, 0.0000
0.3895, -0.9661, 0.0000
0.3274, -0.8270, 0.0000
0.3418, -0.8794, 0.0000
0.3330, -0.8729, 0.0000
0.3184, -0.8507, 0.0000
0.3373, -0.9188, 0.0000
0.3946, -1.0959, 0.0000
0.3100, -0.8784, 0.0000
0.3909, -1.1300, 0.0000
0.3060, -0.9029, 0.0000
0.3386, -1.0204, 0.0000
0.2854, -0.8785, 0.0000
0.3401, -1.0696, 0.0000
0.2512, -0.8074, 0.0000
0.3476, -1.1428, 0.0000
0.2368, -0.7963, 0.0000
0.2349, -0.8086, 0.0000
0.2607, -0.9187, 0.0000
0.2351, -0.8490, 0.0000
0.2365, -0.8752, 0.0000
0.2380, -0.9032, 0.0000
0.2551, -0.9937, 0.0000
0.2557, -1.0225, 0.0000
0.2251, -0.9247, 0.0000
0.2647, -1.1180, 0.0000
0.2279, -0.9903, 0.0000
0.2126, -0.9510, 0.0000
0.2066, -0.9521, 0.0000
0.2304, -1.0952, 0.0000
0.2278, -1.1176, 0.0000
0.2083, -1.0557, 0.0000
0.1777, -0.9317, 0.0000
0.1573, -0.8539, 0.0000
0.1666, -0.9371, 0.0000
0.1427, -0.8333, 0.0000
0.1669, -1.0127, 0.0000
0.1468, -0.9270, 0.0000
0.1557, -1.0247, 0.0000
0.1500, -1.0308, 0.0000
0.1506, -1.0822, 0.0000
0.1276, -0.9614, 0.0000
0.1223, -0.9684, 0.0000
0.1157, -0.9648, 0.0000
0.1340, -1.1800, 0.0000
0.1075, -1.0030, 0.0000
0.1089, -1.0794, 0.0000
0.0860, -0.9098, 0.0000
0.0875, -0.9923, 0.0000
0.0676, -0.8261, 0.0000
0.0669, -0.8858, 0.0000
0.0774, -1.1184, 0.0000
0.0665, -1.0568, 0.0000
0.0519, -0.9170, 0.0000
0.0554, -1.1016, 0.0000
0.0380, -0.8633, 0.0000
0.0376, -0.9980, 0.0000
0.0315, -1.0019, 0.0000
0.0290, -1.1533, 0.0000
0.0196, -1.0401, 0.0000
0.0120, -0.9536, 0.0000
0.0063, -1.0101, 0.0000
0.0000, -0.9749, 0.0000
-0.0067, -1.0674, 0.0000
-0.0149, -1.1887, 0.0000
-0.0159, -0.8446, 0.0000
-0.0248, -0.9884, 0.0000
-0.0271, -0.8617, 0.0000
-0.0438, -1.1605, 0.0000
-0.0434, -0.9864, 0.0000
-0.0498, -0.9907, 0.0000
-0.0517, -0.9127, 0.0000
-0.0583, -0.9261, 0.0000
-0.0649, -0.9379, 0.0000
-0.0649, -0.8594, 0.0000
-0.0886, -1.0824, 0.0000
-0.0857, -0.9718, 0.0000
-0.0815, -0.8624, 0.0000
-0.1118, -1.1082, 0.0000
-0.1238, -1.1545, 0.0000
-0.1087, -0.9567, 0.0000
-0.1310, -1.0922, 0.0000
-0.1150, -0.9105, 0.0000
-0.1541, -1.1610, 0.0000
-0.1596, -1.1471, 0.0000
-0.1611, -1.1071, 0.0000
-0.1347, -0.8865, 0.0000
-0.1377, -0.8696, 0.0000
-0.1892, -1.1477, 0.0000
-0.1457, -0.8508, 0.0000
-0.1588, -0.8935, 0.0000
-0.1558, -0.8456, 0.0000
-0.1997, -1.0470, 0.0000
-0.1712, -0.8680, 0.0000
-0.2319, -1.1376, 0.0000
-0.2229, -1.0596, 0.0000
-0.1802, -0.8306, 0.0000
-0.2239, -1.0018, 0.0000
-0.2026, -0.8802, 0.0000
-0.2205, -0.9314, 0.0000
-0.2302, -0.9458, 0.0000
-0.2423, -0.9690, 0.0000
-0.2260, -0.8802, 0.0000
-0.2614, -0.9921, 0.0000
-0.2451, -0.9073, 0.0000
-0.2290, -0.8268, 0.0000
-0.2441, -0.8602, 0.0000
-0.2751, -0.9468, 0.0000
-0.3083, -1.0369, 0.0000
-0.3102, -1.0196, 0.0000
-0.3313, -1.0651, 0.0000
-0.2428, -0.7637, 0.0000
-0.3470, -1.0680, 0.0000
-0.3495, -1.0531, 0.0000
-0.3329, -0.9823, 0.0000
-0.3586, -1.0367, 0.0000
-0.3604, -1.0211, 0.0000
-0.3488, -0.9689, 0.0000
-0.3709, -1.0103, 0.0000
-0.3491, -0.9327, 0.0000
-0.4110, -1.0775, 0.0000
-0.4217, -1.0849, 0.0000
-0.3950, -0.9976, 0.0000
-0.3101, -0.7690, 0.0000
-0.3568, -0.8692, 0.0000
-0.3872, -0.9265, 0.0000
-0.3841, -0.9032, 0.0000
-0.3535, -0.8168, 0.0000
-0.4578, -1.0399, 0.0000
-0.4718, -1.0537, 0.0000
-0.3390, -0.7446, 0.0000
-0.3411, -0.7369, 0.0000
-0.4472, -0.9504, 0.0000
-0.4728, -0.9885, 0.0000
-0.3522, -0.7246, 0.0000
-0.4335, -0.8779, 0.0000
-0.4500, -0.8971, 0.0000
-0.4231, -0.8304, 0.0000
-0.3805, -0.7353, 0.0000
-0.3985, -0.7584, 0.0000
-0.4854, -0.9098, 0.0000
-0.4800, -0.8862, 0.0000
-0.4262, -0.7753, 0.0000
-0.4116, -0.7378, 0.0000
-0.4957, -0.8754, 0.0000
-0.4710, -0.8198, 0.0000
-0.5337, -0.9156, 0.0000
-0.5902, -0.9979, 0.0000
-0.4953, -0.8257, 0.0000
-0.5155, -0.8471, 0.0000
-0.5403, -0.8755, 0.0000
-0.6006, -0.9596, 0.0000
-0.4715, -0.7429, 0.0000
-0.5799, -0.9011, 0.0000
-0.5808, -0.8903, 0.0000
-0.5687, -0.8599, 0.0000
-0.6159, -0.9186, 0.0000
-0.5474, -0.8054, 0.0000
-0.5939, -0.8622, 0.0000
-0.5791, -0.8295, 0.0000
-0.5374, -0.7595, 0.0000
-0.5918, -0.8254, 0.0000
-0.6041, -0.8315, 0.0000
-0.6822, -0.9267, 0.0000
-0.6672, -0.8945, 0.0000
-0.5531, -0.7319, 0.0000
-0.6028, -0.7874, 0.0000
-0.6586, -0.8490, 0.0000
-0.6111, -0.7776, 0.0000
-0.7218, -0.9067, 0.0000
-0.7079, -0.8779, 0.0000
-0.6012, -0.7361, 0.0000
-0.7041, -0.8511, 0.0000
-0.6504, -0.7762, 0.0000
-0.7210, -0.8496, 0.0000
-0.7432, -0.8647, 0.0000
-0.6292, -0.7228, 0.0000
-0.6448, -0.7313, 0.0000
-0.5785, -0.6479, 0.0000
-0.6302, -0.6969, 0.0000
-0.5871, -0.6412, 0.0000
-0.6499, -0.7008, 0.0000
-0.6774, -0.7214, 0.0000
-0.7037, -0.7400, 0.0000
-0.7031, -0.7302, 0.0000
-0.7884, -0.8085, 0.0000
-0.8428, -0.8535, 0.0000
-0.8380, -0.8380, 0.0000
-0.7984, -0.7884, 0.0000
-0.6976, -0.6803, 0.0000
-0.6802, -0.6550, 0.0000
-0.6030, -0.5734, 0.0000
-0.7915, -0.7433, 0.0000
-0.8201, -0.7605, 0.0000
-0.7480, -0.6850, 0.0000
-0.8141, -0.7361, 0.0000
-0.7895, -0.7049, 0.0000
-0.8223, -0.7250, 0.0000
-0.6805, -0.5924, 0.0000
-0.6783, -0.5830, 0.0000
-0.9144, -0.7760, 0.0000
-0.8531, -0.7148, 0.0000
-0.6704, -0.5546, 0.0000
-0.6371, -0.5203, 0.0000
-0.8431, -0.6798, 0.0000
-0.8190, -0.6519, 0.0000
-0.8149, -0.6403, 0.0000
-0.9367, -0.7266, 0.0000
-0.9439, -0.7227, 0.0000
-0.7613, -0.5753, 0.0000
-0.7202, -0.5372, 0.0000
-0.7034, -0.5178, 0.0000
-0.8729, -0.6342, 0.0000
-0.6577, -0.4716, 0.0000
-0.8957, -0.6337, 0.0000
-0.9673, -0.6753, 0.0000
-0.9735, -0.6706, 0.0000
-0.8521, -0.5791, 0.0000
-0.9709, -0.6509, 0.0000
-0.8158, -0.5395, 0.0000
-0.7418, -0.4840, 0.0000
-0.9881, -0.6358, 0.0000
-0.8674, -0.5505, 0.0000
-0.8108, -0.5075, 0.0000
-0.7787, -0.4805, 0.0000
-0.9089, -0.5530, 0.0000
-0.9006, -0.5403, 0.0000
-0.8448, -0.4996, 0.0000
-0.9849, -0.5742, 0.0000
-0.8935, -0.5134, 0.0000
-0.8928, -0.5055, 0.0000
-0.7780, -0.4341, 0.0000
-0.7838, -0.4309, 0.0000
-0.8273, -0.4481, 0.0000
-1.0311, -0.5501, 0.0000
-0.9876, -0.5190, 0.0000
-1.0414, -0.5389, 0.0000
-1.0605, -0.5403, 0.0000
-0.8113, -0.4070, 0.0000
-0.9482, -0.4682, 0.0000
-0.8597, -0.4178, 0.0000
-0.8683, -0.4153, 0.0000
-0.8151, -0.3835, 0.0000
-0.8047, -0.3725, 0.0000
-0.9937, -0.4524, 0.0000
-0.9352, -0.4187, 0.0000
-0.8484, -0.3735, 0.0000
-0.8618, -0.3729, 0.0000
-0.8436, -0.3588, 0.0000
-0.7769, -0.3247, 0.0000
-1.0376, -0.4260, 0.0000
-0.8447, -0.3406, 0.0000
-0.8193, -0.3244, 0.0000
-0.9508, -0.3696, 0.0000
-1.0800, -0.4120, 0.0000
-1.0263, -0.3841, 0.0000
-0.9667, -0.3549, 0.0000
-1.0556, -0.3800, 0.0000
-0.9914, -0.3499, 0.0000
-1.0799, -0.3735, 0.0000
-0.8709, -0.2951, 0.0000
-0.8931, -0.2964, 0.0000
-1.1059, -0.3593, 0.0000
-1.0469, -0.3329, 0.0000
-1.0773, -0.3351, 0.0000
-1.0751, -0.3271, 0.0000
-1.1026, -0.3279, 0.0000
-0.9884, -0.2871, 0.0000
-1.0836, -0.3074, 0.0000
-1.1484, -0.3180, 0.0000
-1.0869, -0.2937, 0.0000
-0.7820, -0.2060, 0.0000
-0.8938, -0.2295, 0.0000
-0.8621, -0.2156, 0.0000
-0.9729, -0.2368, 0.0000
-0.9300, -0.2202, 0.0000
-0.8361, -0.1924, 0.0000
-0.9945, -0.2223, 0.0000
-0.7874, -0.1708, 0.0000
-0.9935, -0.2090, 0.0000
-0.8788, -0.1791, 0.0000
-1.0027, -0.1978, 0.0000
-0.8071, -0.1540, 0.0000
-1.0866, -0.2002, 0.0000
-1.1175, -0.1987, 0.0000
-0.8569, -0.1468, 0.0000
-0.9656, -0.1592, 0.0000
-1.1084, -0.1756, 0.0000
-0.9085, -0.1380, 0.0000
-0.8117, -0.1181, 0.0000
-0.8499, -0.1182, 0.0000
-0.8984, -0.1192, 0.0000
-0.8374, -0.1058, 0.0000
-1.0584, -0.1270, 0.0000
-1.1695, -0.1328, 0.0000
-0.9635, -0.1033, 0.0000
-0.8396, -0.0847, 0.0000
-0.8677, -0.0820, 0.0000
-0.8350, -0.0736, 0.0000
-0.9367, -0.0767, 0.0000
-1.0539, -0.0796, 0.0000
-1.0171, -0.0704, 0.0000
-0.8942, -0.0563, 0.0000
-1.0900, -0.0617, 0.0000
-0.8955, -0.0451, 0.0000
-0.7993, -0.0352, 0.0000
-1.1296, -0.0426, 0.0000
-1.1586, -0.0364, 0.0000
-0.9629, -0.0242, 0.0000
-1.0464, -0.0197, 0.0000
-0.8169, -0.0103, 0.0000
-0.9486, -0.0060, 0.0000
